subject	run	onset	duration	trial_type	hnr
sub-05	01	13.585920634921	0.665034013609	CONV1_listening	5.87165287196224
sub-05	01	14.49095464853	1.45002267573	CONV1_listening	5.87165287196224
sub-05	01	16.86601133787	2.85496598639	CONV1_listening	5.87165287196224
sub-05	01	21.391	0.449977324260001	CONV1_listening	5.87165287196224
sub-05	01	22.151	3.5499773243	CONV1_listening	5.87165287196224
sub-05	01	26.3209773243	1.34	CONV1_listening	5.87165287196224
sub-05	01	27.851	2.53515822463626	CONV1_listening	5.87165287196224
sub-05	01	33.5259659864	3.5999546485	CONV1_listening	5.87165287196224
sub-05	01	39.4660113379	0.594965986399998	CONV1_listening	5.87165287196224
sub-05	01	40.4060113379	1.83496598640001	CONV1_listening	5.87165287196224
sub-05	01	42.591	0.889977324299998	CONV1_listening	5.87165287196224
sub-05	01	44.571	0.449977324300001	CONV1_listening	5.87165287196224
sub-05	01	45.3009773243	6.48	CONV1_listening	5.87165287196224
sub-05	01	60.6759886621	2.5849886622	CONV1_listening	5.87165287196224
sub-05	01	63.8859659864	3.83501133790001	CONV1_listening	5.87165287196224
sub-05	01	68.1559886621	3.36498866219999	CONV1_listening	5.87165287196224
sub-05	01	15.71095464853	1.03501133786	CONV1_speaking	5.87165287196224
sub-05	01	20.11095464853	1.22	CONV1_speaking	5.87165287196224
sub-05	01	25.3159433107	1.07947841403893	CONV1_speaking	5.87165287196224
sub-05	01	29.8060113379	2.3299319728	CONV1_speaking	5.87165287196224
sub-05	01	34.9209773243	0.359999999999999	CONV1_speaking	5.87165287196224
sub-05	01	36.0810226757	0.139954648599996	CONV1_speaking	5.87165287196224
sub-05	01	36.6860113379	2.4349659864	CONV1_speaking	5.87165287196224
sub-05	01	39.4260113379	0.354965986399996	CONV1_speaking	5.87165287196224
sub-05	01	40.3260113379	0.414965986400006	CONV1_speaking	5.87165287196224
sub-05	01	42.6059659864	0.355011337900002	CONV1_speaking	5.87165287196224
sub-05	01	43.2860113379	1.1949659864	CONV1_speaking	5.87165287196224
sub-05	01	51.1260113379	0.234965986399999	CONV1_speaking	5.87165287196224
sub-05	01	52.1409773243	2.91999999999999	CONV1_speaking	5.87165287196224
sub-05	01	55.4459659864	2.88	CONV1_speaking	5.87165287196224
sub-05	01	59.0159886621	1.9249886622	CONV1_speaking	5.87165287196224
sub-05	01	70.9002917429969	1.0442683477031	CONV1_speaking	5.87165287196224
sub-05	01	90.84198866213	0.604988662129998	CONV2_listening	4.25058213644293
sub-05	01	92.94198866213	0.904988662130009	CONV2_listening	4.25058213644293
sub-05	01	99.02697732426	0.400000000000006	CONV2_listening	4.25058213644293
sub-05	01	100.2019886621	3.4049886622	CONV2_listening	4.25058213644293
sub-05	01	106.9069773243	0.359999999999999	CONV2_listening	4.25058213644293
sub-05	01	107.7719659864	1.9649886621	CONV2_listening	4.25058213644293
sub-05	01	110.2869773243	1.13999999999999	CONV2_listening	4.25058213644293
sub-05	01	113.2069773243	0.715011337800007	CONV2_listening	4.25058213644293
sub-05	01	120.1269773243	1.54000000000001	CONV2_listening	4.25058213644293
sub-05	01	126.2819886621	0.404988662199997	CONV2_listening	4.25058213644293
sub-05	01	126.8720113379	0.749977324199989	CONV2_listening	4.25058213644293
sub-05	01	129.4869773243	1.97999999999999	CONV2_listening	4.25058213644293
sub-05	01	135.357	0.90498866210001	CONV2_listening	4.25058213644293
sub-05	01	139.857	2.38997732430002	CONV2_listening	4.25058213644293
sub-05	01	147.7919659864	0.685034013600017	CONV2_listening	4.25058213644293
sub-05	01	91.82189795918	0.545079365079999	CONV2_speaking	4.25058213644293
sub-05	01	94.24198866213	3.10498866213001	CONV2_speaking	4.25058213644293
sub-05	01	103.877	2.46997732429999	CONV2_speaking	4.25058213644293
sub-05	01	110.1320113379	0.314965986400011	CONV2_speaking	4.25058213644293
sub-05	01	112.603862248659	0.513092399841369	CONV2_speaking	4.25058213644293
sub-05	01	114.5219886621	0.780000000000001	CONV2_speaking	4.25058213644293
sub-05	01	115.677	1.22997732429999	CONV2_speaking	4.25058213644293
sub-05	01	122.1070226757	0.559954648600012	CONV2_speaking	4.25058213644293
sub-05	01	124.057	0.889977324300006	CONV2_speaking	4.25058213644293
sub-05	01	128.5120113379	0.594965986400013	CONV2_speaking	4.25058213644293
sub-05	01	131.4619886621	3.54494331070001	CONV2_speaking	4.25058213644293
sub-05	01	138.4470226757	0.639954648599996	CONV2_speaking	4.25058213644293
sub-05	01	142.7120113379	1.7949659864	CONV2_speaking	4.25058213644293
sub-05	01	145.1270226757	1.79995464859999	CONV2_speaking	4.25058213644293
sub-05	01	167.60994331066	1.0450340136	CONV1_listening	5.84038635951587
sub-05	01	170.265	6.91496598640001	CONV1_listening	5.84038635951587
sub-05	01	178.0749773243	0.580000000000013	CONV1_listening	5.84038635951587
sub-05	01	179.7800113379	3.44997732420001	CONV1_listening	5.84038635951587
sub-05	01	183.6600113379	1.7949659864	CONV1_listening	5.84038635951587
sub-05	01	193.685	5.10997732430002	CONV1_listening	5.84038635951587
sub-05	01	199.1799659864	3.91501133789998	CONV1_listening	5.84038635951587
sub-05	01	208.3699886621	5.36997732430001	CONV1_listening	5.84038635951587
sub-05	01	214.4749773243	2.73487528340002	CONV1_listening	5.84038635951587
sub-05	01	218.1199659864	1.1750113379	CONV1_listening	5.84038635951587
sub-05	01	169.32490929705	1.85006802721	CONV1_speaking	5.84038635951587
sub-05	01	177.3600113379	1.46854959423791	CONV1_speaking	5.84038635951587
sub-05	01	182.865	1.19839816118298	CONV1_speaking	5.84038635951587
sub-05	01	184.3950226757	0.679954648599988	CONV1_speaking	5.84038635951587
sub-05	01	185.6350226757	4.89995464859999	CONV1_speaking	5.84038635951587
sub-05	01	190.8699886621	2.48498866219998	CONV1_speaking	5.84038635951587
sub-05	01	201.905	0.669977324299992	CONV1_speaking	5.84038635951587
sub-05	01	203.005	4.9699773243	CONV1_speaking	5.84038635951587
sub-05	01	213.925	0.6299773243	CONV1_speaking	5.84038635951587
sub-05	01	217.8350226757	0.459954648600018	CONV1_speaking	5.84038635951587
sub-05	01	219.221784149685	5.75677594101475	CONV1_speaking	5.84038635951587
sub-05	01	247.31190929705	0.415056689339991	CONV2_listening	5.42830624123691
sub-05	01	247.94696598639	1.59002267574002	CONV2_listening	5.42830624123691
sub-05	01	254.8819319728	1.0150566893	CONV2_listening	5.42830624123691
sub-05	01	256.4069659864	1.3100226757	CONV2_listening	5.42830624123691
sub-05	01	259.3619773243	1.96000000000004	CONV2_listening	5.42830624123691
sub-05	01	263.632	1.94997732429999	CONV2_listening	5.42830624123691
sub-05	01	272.4469659864	1.2350113379	CONV2_listening	5.42830624123691
sub-05	01	273.912	0.789977324300025	CONV2_listening	5.42830624123691
sub-05	01	277.2369886621	1.22498866220002	CONV2_listening	5.42830624123691
sub-05	01	278.7019773243	0.779999999999973	CONV2_listening	5.42830624123691
sub-05	01	282.312	0.324988662099997	CONV2_listening	5.42830624123691
sub-05	01	285.192	0.774965986399991	CONV2_listening	5.42830624123691
sub-05	01	291.8219773243	0.71999999999997	CONV2_listening	5.42830624123691
sub-05	01	293.4969886621	2.86498866220006	CONV2_listening	5.42830624123691
sub-05	01	300.832	0.389977324299991	CONV2_listening	5.42830624123691
sub-05	01	301.4419773243	0.230022675700013	CONV2_listening	5.42830624123691
sub-05	01	245.48692063492	0.235056689339984	CONV2_speaking	5.42830624123691
sub-05	01	250.12696598639	2.73501133791001	CONV2_speaking	5.42830624123691
sub-05	01	259.3419773243	0.300000000000011	CONV2_speaking	5.42830624123691
sub-05	01	262.152	0.669977324300021	CONV2_speaking	5.42830624123691
sub-05	01	265.7270113379	4.31496598639995	CONV2_speaking	5.42830624123691
sub-05	01	270.2419773243	1.03999999999996	CONV2_speaking	5.42830624123691
sub-05	01	275.6969886621	0.384988662199987	CONV2_speaking	5.42830624123691
sub-05	01	280.0220226757	1.05995464860001	CONV2_speaking	5.42830624123691
sub-05	01	283.532	0.429977324300012	CONV2_speaking	5.42830624123691
sub-05	01	286.472	4.34997732430003	CONV2_speaking	5.42830624123691
sub-05	01	297.572	2.34997732429997	CONV2_speaking	5.42830624123691
sub-05	01	317.22792063492	1.31505668934	CONV1_listening	5.4929324330189
sub-05	01	319.00801133787	1.71496598639004	CONV1_listening	5.4929324330189
sub-05	01	322.053	4.0297959184	CONV1_listening	5.4929324330189
sub-05	01	326.6080113379	1.40458309433143	CONV1_listening	5.4929324330189
sub-05	01	328.6579886621	0.664988662200017	CONV1_listening	5.4929324330189
sub-05	01	330.4029773243	0.399999999999977	CONV1_listening	5.4929324330189
sub-05	01	332.633	4.44997732429999	CONV1_listening	5.4929324330189
sub-05	01	337.913	0.534965986400039	CONV1_listening	5.4929324330189
sub-05	01	344.5779886621	1.27845437484842	CONV1_listening	5.4929324330189
sub-05	01	347.273	2.34997732430003	CONV1_listening	5.4929324330189
sub-05	01	349.813	2.86997732429995	CONV1_listening	5.4929324330189
sub-05	01	355.1629773243	0.699999999999989	CONV1_listening	5.4929324330189
sub-05	01	356.233	4.49492063490004	CONV1_listening	5.4929324330189
sub-05	01	368.1880113379	0.574965986400002	CONV1_listening	5.4929324330189
sub-05	01	369.033	4.46997732430003	CONV1_listening	5.4929324330189
sub-05	01	374.1879659864	0.705034013600027	CONV1_listening	5.4929324330189
sub-05	01	317.34293197279	0.155056689339972	CONV1_speaking	5.4929324330189
sub-05	01	320.90297732426	1.16489795919	CONV1_speaking	5.4929324330189
sub-05	01	326.6229319728	0.260045351500025	CONV1_speaking	5.4929324330189
sub-05	01	327.5629773243	0.979999999999961	CONV1_speaking	5.4929324330189
sub-05	01	329.653	0.309977324300007	CONV1_speaking	5.4929324330189
sub-05	01	330.533	0.149977324300039	CONV1_speaking	5.4929324330189
sub-05	01	330.9680113379	1.4549659864	CONV1_speaking	5.4929324330189
sub-05	01	339.513	5.84997732429997	CONV1_speaking	5.4929324330189
sub-05	01	346.133	0.809977324300007	CONV1_speaking	5.4929324330189
sub-05	01	352.9429773243	2.47999999999996	CONV1_speaking	5.4929324330189
sub-05	01	360.3030226757	7.55995464859996	CONV1_speaking	5.4929324330189
sub-05	01	368.2429773243	0.799999999999955	CONV1_speaking	5.4929324330189
sub-05	01	394.64287528345	0.635102040810011	CONV2_listening	4.30007548943169
sub-05	01	398.83797732426	0.340000000000032	CONV2_listening	4.30007548943169
sub-05	01	400.73797732426	0.45999999999998	CONV2_listening	4.30007548943169
sub-05	01	401.37797732426	1.44000000004002	CONV2_listening	4.30007548943169
sub-05	01	405.9379773243	0.420000000000016	CONV2_listening	4.30007548943169
sub-05	01	406.6029659864	2.07501133789998	CONV2_listening	4.30007548943169
sub-05	01	416.9179773243	0.420000000000016	CONV2_listening	4.30007548943169
sub-05	01	417.5129886621	1.52498866219997	CONV2_listening	4.30007548943169
sub-05	01	422.5729886621	1.00993197280002	CONV2_listening	4.30007548943169
sub-05	01	426.988	0.3849886621	CONV2_listening	4.30007548943169
sub-05	01	433.388	0.769977324299987	CONV2_listening	4.30007548943169
sub-05	01	435.5529886621	2.40498866220003	CONV2_listening	4.30007548943169
sub-05	01	443.7779773243	0.5	CONV2_listening	4.30007548943169
sub-05	01	444.8979773243	0.800000000000011	CONV2_listening	4.30007548943169
sub-05	01	446.7129886621	1.1849886622	CONV2_listening	4.30007548943169
sub-05	01	394.50292063492	0.851797751504989	CONV2_speaking	4.30007548943169
sub-05	01	395.55797732426	0.740000000000009	CONV2_speaking	4.30007548943169
sub-05	01	400.27797732426	0.660000000000025	CONV2_speaking	4.30007548943169
sub-05	01	401.280694960266	1.03728236399388	CONV2_speaking	4.30007548943169
sub-05	01	403.308	2.08997732430004	CONV2_speaking	4.30007548943169
sub-05	01	409.57359049797	4.86438682632985	CONV2_speaking	4.30007548943169
sub-05	01	421.8729886621	1.3049886622	CONV2_speaking	4.30007548943169
sub-05	01	424.1580226757	1.97995464860003	CONV2_speaking	4.30007548943169
sub-05	01	427.0380226757	0.179954648600017	CONV2_speaking	4.30007548943169
sub-05	01	427.648	5.18519763052768	CONV2_speaking	4.30007548943169
sub-05	01	438.5430113379	2.12993197280002	CONV2_speaking	4.30007548943169
sub-05	01	441.008	1.5699773243	CONV2_speaking	4.30007548943169
sub-05	01	448.388	0.669977324299964	CONV2_speaking	4.30007548943169
sub-05	01	449.5179773243	1.90358276640001	CONV2_speaking	4.30007548943169
