subject	run	onset	duration	trial_type	hnr
sub-09	04	20.02789795918	0.205079365079996	CONV1_listening	3.97449380528212
sub-09	04	20.79801133787	2.79496598643	CONV1_listening	3.97449380528212
sub-09	04	26.003	1.97962757398452	CONV1_listening	3.97449380528212
sub-09	04	32.183	0.2049886621	CONV1_listening	3.97449380528212
sub-09	04	32.6529773243	3	CONV1_listening	3.97449380528212
sub-09	04	36.4180113379	0.974965986400008	CONV1_listening	3.97449380528212
sub-09	04	39.5779659864	0.595011337899997	CONV1_listening	3.97449380528212
sub-09	04	46.723	0.209977324299999	CONV1_listening	3.97449380528212
sub-09	04	50.9180113379	0.214965986400003	CONV1_listening	3.97449380528212
sub-09	04	53.7130226757	0.539954648600002	CONV1_listening	3.97449380528212
sub-09	04	57.8079886621	0.584988662200004	CONV1_listening	3.97449380528212
sub-09	04	58.6529773243	2.60000000000001	CONV1_listening	3.97449380528212
sub-09	04	68.283	0.229977324299995	CONV1_listening	3.97449380528212
sub-09	04	71.0530226757	0.929977324299998	CONV1_listening	3.97449380528212
sub-09	04	14.6922588741391	5.90981230631157	CONV1_speaking	3.97449380528212
sub-09	04	23.3329773243	1.99453404106112	CONV1_speaking	3.97449380528212
sub-09	04	27.9371692267256	0.34531264543001	CONV1_speaking	3.97449380528212
sub-09	04	28.5141911349567	3.61878618934333	CONV1_speaking	3.97449380528212
sub-09	04	36.1380113379	1.05496598640001	CONV1_speaking	3.97449380528212
sub-09	04	37.5944822013653	1.44352007515822	CONV1_speaking	3.97449380528212
sub-09	04	39.883	3.02997732430001	CONV1_speaking	3.97449380528212
sub-09	04	43.583	2.88997732430001	CONV1_speaking	3.97449380528212
sub-09	04	47.3679886621	3.4049886622	CONV1_speaking	3.97449380528212
sub-09	04	51.3729773243	2.12	CONV1_speaking	3.97449380528212
sub-09	04	53.863	1.4099773243	CONV1_speaking	3.97449380528212
sub-09	04	55.803	2.22997732430001	CONV1_speaking	3.97449380528212
sub-09	04	61.2879886621	6.88	CONV1_speaking	3.97449380528212
sub-09	04	68.8679886621	1.86498866219999	CONV1_speaking	3.97449380528212
sub-09	04	92.02288662132	0.465079365069997	CONV2_listening	4.51364208471786
sub-09	04	102.0629773243	0.960000000000008	CONV2_listening	4.51364208471786
sub-09	04	112.833	1.10997732429999	CONV2_listening	4.51364208471786
sub-09	04	114.8179886621	1.64498866220001	CONV2_listening	4.51364208471786
sub-09	04	123.9179886621	1.7449886622	CONV2_listening	4.51364208471786
sub-09	04	125.873	1.0699773243	CONV2_listening	4.51364208471786
sub-09	04	134.6979886621	0.704988662200009	CONV2_listening	4.51364208471786
sub-09	04	136.7079659864	0.755011337900015	CONV2_listening	4.51364208471786
sub-09	04	139.673	0.489977324299986	CONV2_listening	4.51364208471786
sub-09	04	143.0879659864	1.1750113379	CONV2_listening	4.51364208471786
sub-09	04	91.7951279173259	0.527849406934052	CONV2_speaking	4.51364208471786
sub-09	04	92.82302267574	0.379954648519998	CONV2_speaking	4.51364208471786
sub-09	04	93.433	5.18997732426	CONV2_speaking	4.51364208471786
sub-09	04	100.013	0.949977324300008	CONV2_speaking	4.51364208471786
sub-09	04	103.433	0.909977324300002	CONV2_speaking	4.51364208471786
sub-09	04	105.7479659864	6.1199546485	CONV2_speaking	4.51364208471786
sub-09	04	118.2280113379	3.0749659864	CONV2_speaking	4.51364208471786
sub-09	04	128.295065097253	3.08791222704667	CONV2_speaking	4.51364208471786
sub-09	04	132.1280113379	1.6749659864	CONV2_speaking	4.51364208471786
sub-09	04	134.4379886621	0.864988662200005	CONV2_speaking	4.51364208471786
sub-09	04	136.353	2.34997732429997	CONV2_speaking	4.51364208471786
sub-09	04	142.673104497151	0.849872827149085	CONV2_speaking	4.51364208471786
sub-09	04	145.4230226757	2.43995464860001	CONV2_speaking	4.51364208471786
sub-09	04	176.5208979592	0.230068027199991	CONV1_listening	4.57820660758979
sub-09	04	177.1260226757	1.83995464859998	CONV1_listening	4.57820660758979
sub-09	04	180.016	2.9099773243	CONV1_listening	4.57820660758979
sub-09	04	184.296	0.309977324300007	CONV1_listening	4.57820660758979
sub-09	04	186.5009886621	0.180000000000007	CONV1_listening	4.57820660758979
sub-09	04	194.4659773243	0.21999999999997	CONV1_listening	4.57820660758979
sub-09	04	195.3110113379	0.49496598639999	CONV1_listening	4.57820660758979
sub-09	04	200.9409886621	0.224988662200019	CONV1_listening	4.57820660758979
sub-09	04	206.256	0.60997732429999	CONV1_listening	4.57820660758979
sub-09	04	208.9460226757	2.07995464860002	CONV1_listening	4.57820660758979
sub-09	04	213.8409886621	0.169977324299992	CONV1_listening	4.57820660758979
sub-09	04	168.66602267574	1.83995464851998	CONV1_speaking	4.57820660758979
sub-09	04	171.93096598639	3.93501133787001	CONV1_speaking	4.57820660758979
sub-09	04	183.6459773243	0.235011337800017	CONV1_speaking	4.57820660758979
sub-09	04	184.1060226757	1.89995464860002	CONV1_speaking	4.57820660758979
sub-09	04	186.5209886621	3.3449886622	CONV1_speaking	4.57820660758979
sub-09	04	190.6660226757	2.27995464860001	CONV1_speaking	4.57820660758979
sub-09	04	193.336	0.789931972799991	CONV1_speaking	4.57820660758979
sub-09	04	195.281256616939	3.54370026293748	CONV1_speaking	4.57820660758979
sub-09	04	199.260843333944	1.08513399035644	CONV1_speaking	4.57820660758979
sub-09	04	200.9510113379	2.21496598639999	CONV1_speaking	4.57820660758979
sub-09	04	205.136	2.3499773243	CONV1_speaking	4.57820660758979
sub-09	04	208.90570258887	0.871772908134773	CONV1_speaking	4.57820660758979
sub-09	04	210.8209886621	1.0249886622	CONV1_speaking	4.57820660758979
sub-09	04	212.183342288935	1.42263503536532	CONV1_speaking	4.57820660758979
sub-09	04	215.7060226757	7.7599546486	CONV1_speaking	4.57820660758979
sub-09	04	224.3259773243	0.823582766399994	CONV1_speaking	4.57820660758979
sub-09	04	254.7998866213	1.20009070299997	CONV2_listening	4.84413473316248
sub-09	04	261.25	0.269977324299987	CONV2_listening	4.84413473316248
sub-09	04	267.6999773243	1.19999999999999	CONV2_listening	4.84413473316248
sub-09	04	275.4250113379	0.314965986400011	CONV2_listening	4.84413473316248
sub-09	04	280.1799773243	3.13999999999999	CONV2_listening	4.84413473316248
sub-09	04	283.5049659864	0.315011337899989	CONV2_listening	4.84413473316248
sub-09	04	294.3549886621	0.364988662200005	CONV2_listening	4.84413473316248
sub-09	04	296.6400226757	2.49995464860001	CONV2_listening	4.84413473316248
sub-09	04	244.173198311267	4.20677901299325	CONV2_speaking	4.84413473316248
sub-09	04	249.07	0.509977324260007	CONV2_speaking	4.84413473316248
sub-09	04	250.13997732426	1.91999999999999	CONV2_speaking	4.84413473316248
sub-09	04	253.17	1.86997732430001	CONV2_speaking	4.84413473316248
sub-09	04	256.43	1.68728693618664	CONV2_speaking	4.84413473316248
sub-09	04	259.243798681114	1.23617864318589	CONV2_speaking	4.84413473316248
sub-09	04	260.83	2.78997732430003	CONV2_speaking	4.84413473316248
sub-09	04	264.812900049986	3.38707727431438	CONV2_speaking	4.84413473316248
sub-09	04	271.4250113379	3.09496598639998	CONV2_speaking	4.84413473316248
sub-09	04	276.018749444204	1.84122788009586	CONV2_speaking	4.84413473316248
sub-09	04	285.025084014915	1.56805906203459	CONV2_speaking	4.84413473316248
sub-09	04	287.1200226757	0.839954648599985	CONV2_speaking	4.84413473316248
sub-09	04	290.7850113379	1.0749659864	CONV2_speaking	4.84413473316248
sub-09	04	292.8999773243	1.44	CONV2_speaking	4.84413473316248
sub-09	04	299.9650113379	1.71854875280002	CONV2_speaking	4.84413473316248
sub-09	04	313.82495464853	2.97002267572998	CONV1_listening	4.27057489308133
sub-09	04	317.56001133787	5.57496598643002	CONV1_listening	4.27057489308133
sub-09	04	323.845	2.46997732429998	CONV1_listening	4.27057489308133
sub-09	04	329.8749773243	0.220000000000027	CONV1_listening	4.27057489308133
sub-09	04	335.5200113379	0.254965986400009	CONV1_listening	4.27057489308133
sub-09	04	341.345	0.609977324300019	CONV1_listening	4.27057489308133
sub-09	04	342.5400113379	3.18487364719772	CONV1_listening	4.27057489308133
sub-09	04	346.6550226757	0.239954648600019	CONV1_listening	4.27057489308133
sub-09	04	353.725	0.329977324299989	CONV1_listening	4.27057489308133
sub-09	04	356.205	0.209977324299985	CONV1_listening	4.27057489308133
sub-09	04	361.9299886621	0.244988662200001	CONV1_listening	4.27057489308133
sub-09	04	362.6949773243	6.30000000000001	CONV1_listening	4.27057489308133
sub-09	04	369.6000113379	0.194965986400007	CONV1_listening	4.27057489308133
sub-09	04	317.141401988901	0.367956097589342	CONV1_speaking	4.27057489308133
sub-09	04	326.5349773243	3.03496598639998	CONV1_speaking	4.27057489308133
sub-09	04	330.5349773243	4.78997732419998	CONV1_speaking	4.27057489308133
sub-09	04	336.145	2.36997732430001	CONV1_speaking	4.27057489308133
sub-09	04	339.305	3.16997732430002	CONV1_speaking	4.27057489308133
sub-09	04	345.285	1.1899773243	CONV1_speaking	4.27057489308133
sub-09	04	347.400195272459	3.57478205184117	CONV1_speaking	4.27057489308133
sub-09	04	351.205	2.16997732429996	CONV1_speaking	4.27057489308133
sub-09	04	354.1600113379	1.77496598639999	CONV1_speaking	4.27057489308133
sub-09	04	357.3800113379	3.65496598639999	CONV1_speaking	4.27057489308133
sub-09	04	368.8800113379	1.41854875280001	CONV1_speaking	4.27057489308133
sub-09	04	396.12287528345	1.17510204080997	CONV2_listening	4.31072334671236
sub-09	04	397.51797732426	1.72000000003999	CONV2_listening	4.31072334671236
sub-09	04	400.888	0.689977324300003	CONV2_listening	4.31072334671236
sub-09	04	409.1579773243	2.56	CONV2_listening	4.31072334671236
sub-09	04	424.7529886621	0.98498866220001	CONV2_listening	4.31072334671236
sub-09	04	428.3229659864	2.87501133790005	CONV2_listening	4.31072334671236
sub-09	04	440.2179773243	1.24000000000001	CONV2_listening	4.31072334671236
sub-09	04	389.464415572064	5.69855041432652	CONV2_speaking	4.31072334671236
sub-09	04	396.035382314836	0.562595009423831	CONV2_speaking	4.31072334671236
sub-09	04	399.935178646183	0.342798678117163	CONV2_speaking	4.31072334671236
sub-09	04	400.7830113379	0.29496598640003	CONV2_speaking	4.31072334671236
sub-09	04	401.75797654501	0.960000779289942	CONV2_speaking	4.31072334671236
sub-09	04	403.871265306122	2.3267120181776	CONV2_speaking	4.31072334671236
sub-09	04	406.4430113379	2.27496598639999	CONV2_speaking	4.31072334671236
sub-09	04	413.438021194843	2.3199561294573	CONV2_speaking	4.31072334671236
sub-09	04	417.3779773243	0.879999999999995	CONV2_speaking	4.31072334671236
sub-09	04	418.6430113379	2.55496598640002	CONV2_speaking	4.31072334671236
sub-09	04	422.428	2.34997732430003	CONV2_speaking	4.31072334671236
sub-09	04	432.088	0.209977324299985	CONV2_speaking	4.31072334671236
sub-09	04	432.7579773243	1.42000000000002	CONV2_speaking	4.31072334671236
sub-09	04	437.8830113379	3.43496598640002	CONV2_speaking	4.31072334671236
sub-09	04	442.9780226757	3.88353741500003	CONV2_speaking	4.31072334671236
