subject	run	onset	duration	trial_type	hnr
sub-08	02	18.32090929705	0.240045351479999	CONV1_listening	2.95827984586004
sub-08	02	22.70095464853	1.55002267577	CONV1_listening	2.95827984586004
sub-08	02	31.5960113379	0.374965986399999	CONV1_listening	2.95827984586004
sub-08	02	32.2960113379	2.3448072562	CONV1_listening	2.95827984586004
sub-08	02	35.0960113379	3.3749659864	CONV1_listening	2.95827984586004
sub-08	02	43.101	1.2299773243	CONV1_listening	2.95827984586004
sub-08	02	44.781	2.9699773243	CONV1_listening	2.95827984586004
sub-08	02	57.5659886621	4.4449886622	CONV1_listening	2.95827984586004
sub-08	02	62.781	1.4699773243	CONV1_listening	2.95827984586004
sub-08	02	68.9160113379	0.374965986399999	CONV1_listening	2.95827984586004
sub-08	02	71.5059886621	0.4750113379	CONV1_listening	2.95827984586004
sub-08	02	14.721	0.349977324259999	CONV1_speaking	2.95827984586004
sub-08	02	16.141	1.92997732426	CONV1_speaking	2.95827984586004
sub-08	02	19.061	1.30997732426	CONV1_speaking	2.95827984586004
sub-08	02	20.62598866213	0.604988662130001	CONV1_speaking	2.95827984586004
sub-08	02	22.27601133787	0.29496598639	CONV1_speaking	2.95827984586004
sub-08	02	23.9608945452277	7.77008277907226	CONV1_speaking	2.95827984586004
sub-08	02	33.7964932156821	0.254738836792633	CONV1_speaking	2.95827984586004
sub-08	02	38.3365053736307	4.41447195066926	CONV1_speaking	2.95827984586004
sub-08	02	48.6441537798654	0.583068893103132	CONV1_speaking	2.95827984586004
sub-08	02	49.7661090026609	1.18486832163913	CONV1_speaking	2.95827984586004
sub-08	02	51.941	1.0499773243	CONV1_speaking	2.95827984586004
sub-08	02	64.8160113379	0.454965986399998	CONV1_speaking	2.95827984586004
sub-08	02	65.461	2.16982742390074	CONV1_speaking	2.95827984586004
sub-08	02	69.761	0.86997732430001	CONV1_speaking	2.95827984586004
sub-08	02	96.03693197279	1.14004535147001	CONV2_listening	6.98580969692685
sub-08	02	97.43198866213	0.364988662130003	CONV2_listening	6.98580969692685
sub-08	02	97.98201133787	0.63496598639	CONV2_listening	6.98580969692685
sub-08	02	99.12201133787	1.11496598642999	CONV2_listening	6.98580969692685
sub-08	02	108.6519886621	0.884988662200001	CONV2_listening	6.98580969692685
sub-08	02	110.8369773243	0.820000000000007	CONV2_listening	6.98580969692685
sub-08	02	116.6969773243	0.939999999999998	CONV2_listening	6.98580969692685
sub-08	02	125.1719886621	1.5849886622	CONV2_listening	6.98580969692685
sub-08	02	128.1569773243	0.700000000000017	CONV2_listening	6.98580969692685
sub-08	02	132.1019659864	0.915011337900012	CONV2_listening	6.98580969692685
sub-08	02	137.967	1.34997732430003	CONV2_listening	6.98580969692685
sub-08	02	144.0419659864	1.35501133790001	CONV2_listening	6.98580969692685
sub-08	02	93.347	1.92997732426001	CONV2_speaking	6.98580969692685
sub-08	02	97.9584443785661	0.367956097589357	CONV2_speaking	6.98580969692685
sub-08	02	100.57942396601	2.99755335828974	CONV2_speaking	6.98580969692685
sub-08	02	104.718871326311	1.49298128138861	CONV2_speaking	6.98580969692685
sub-08	02	107.7119886621	0.544988662199998	CONV2_speaking	6.98580969692685
sub-08	02	109.8519886621	0.384988662200001	CONV2_speaking	6.98580969692685
sub-08	02	111.8319886621	0.6049886622	CONV2_speaking	6.98580969692685
sub-08	02	113.1919886621	0.444988662200004	CONV2_speaking	6.98580969692685
sub-08	02	114.6919886621	1.4449886622	CONV2_speaking	6.98580969692685
sub-08	02	116.3319886621	0.764988662199997	CONV2_speaking	6.98580969692685
sub-08	02	118.5220113379	1.8848979592	CONV2_speaking	6.98580969692685
sub-08	02	120.7969773243	1.40000000000001	CONV2_speaking	6.98580969692685
sub-08	02	122.871374801747	1.12560252255298	CONV2_speaking	6.98580969692685
sub-08	02	124.507	0.969977324300004	CONV2_speaking	6.98580969692685
sub-08	02	127.7519886621	0.684988662200013	CONV2_speaking	6.98580969692685
sub-08	02	129.2420113379	1.1749659864	CONV2_speaking	6.98580969692685
sub-08	02	131.842340672663	0.374636651637275	CONV2_speaking	6.98580969692685
sub-08	02	134.2970226757	3.62541563579944	CONV2_speaking	6.98580969692685
sub-08	02	140.4420113379	0.414965986400006	CONV2_speaking	6.98580969692685
sub-08	02	141.3220113379	2.31990929700001	CONV2_speaking	6.98580969692685
sub-08	02	145.8369773243	0.460000000000008	CONV2_speaking	6.98580969692685
sub-08	02	146.5220113379	0.234965986399999	CONV2_speaking	6.98580969692685
sub-08	02	169.14290929705	0.210068027210013	CONV1_listening	3.83320434757516
sub-08	02	187.2729319728	2.12004535150001	CONV1_listening	3.83320434757516
sub-08	02	190.4580113379	0.874965986399985	CONV1_listening	3.83320434757516
sub-08	02	198.2679886621	0.284988662199993	CONV1_listening	3.83320434757516
sub-08	02	198.9380113379	3.66993197280001	CONV1_listening	3.83320434757516
sub-08	02	212.243	1.80997732430001	CONV1_listening	3.83320434757516
sub-08	02	167.94798866213	0.264988662130008	CONV1_speaking	3.83320434757516
sub-08	02	169.663	2.46997732426001	CONV1_speaking	3.83320434757516
sub-08	02	172.58798866213	4.00498866217001	CONV1_speaking	3.83320434757516
sub-08	02	177.491387643392	0.4815896809084	CONV1_speaking	3.83320434757516
sub-08	02	178.6879886621	3.50498866220002	CONV1_speaking	3.83320434757516
sub-08	02	183.107907645913	2.80506967838687	CONV1_speaking	3.83320434757516
sub-08	02	189.6329773243	0.439999999999998	CONV1_speaking	3.83320434757516
sub-08	02	191.5180113379	2.71496598639999	CONV1_speaking	3.83320434757516
sub-08	02	194.5930226757	3.3199546486	CONV1_speaking	3.83320434757516
sub-08	02	203.0780113379	3.1349659864	CONV1_speaking	3.83320434757516
sub-08	02	208.163	3.34498866210001	CONV1_speaking	3.83320434757516
sub-08	02	214.4879886621	1.64498866220001	CONV1_speaking	3.83320434757516
sub-08	02	218.2780113379	1.1749659864	CONV1_speaking	3.83320434757516
sub-08	02	219.941229377987	0.371747946313377	CONV1_speaking	3.83320434757516
sub-08	02	221.1679886621	0.724988662199991	CONV1_speaking	3.83320434757516
sub-08	02	222.4729773243	1.47999999999999	CONV1_speaking	3.83320434757516
sub-08	02	249.38290929705	1.25006802721001	CONV2_listening	8.0713356852133
sub-08	02	252.623	1.38997732429999	CONV2_listening	8.0713356852133
sub-08	02	265.3129773243	1.48000000000002	CONV2_listening	8.0713356852133
sub-08	02	267.1679886621	0.964988662199971	CONV2_listening	8.0713356852133
sub-08	02	268.6179659864	0.715011337900023	CONV2_listening	8.0713356852133
sub-08	02	273.5329773243	0.800000000000011	CONV2_listening	8.0713356852133
sub-08	02	282.0979659864	1.2350113379	CONV2_listening	8.0713356852133
sub-08	02	285.6529773243	1.13999999999999	CONV2_listening	8.0713356852133
sub-08	02	287.3879886621	0.764988662199983	CONV2_listening	8.0713356852133
sub-08	02	292.3079886621	0.844988662200024	CONV2_listening	8.0713356852133
sub-08	02	293.3479886621	0.624988662199996	CONV2_listening	8.0713356852133
sub-08	02	298.503	2.90997732429997	CONV2_listening	8.0713356852133
sub-08	02	244.783	1.36997732425999	CONV2_speaking	8.0713356852133
sub-08	02	251.05801133787	0.334965986389989	CONV2_speaking	8.0713356852133
sub-08	02	252.44798866213	0.504988662170007	CONV2_speaking	8.0713356852133
sub-08	02	254.303	0.529977324299978	CONV2_speaking	8.0713356852133
sub-08	02	255.1729773243	2.34000000000003	CONV2_speaking	8.0713356852133
sub-08	02	258.579640476408	0.333336847891871	CONV2_speaking	8.0713356852133
sub-08	02	260.1879886621	4.16498866220002	CONV2_speaking	8.0713356852133
sub-08	02	267.0180113379	0.294965986399973	CONV2_speaking	8.0713356852133
sub-08	02	270.103	0.669977324300021	CONV2_speaking	8.0713356852133
sub-08	02	271.1580113379	0.672766104615789	CONV2_speaking	8.0713356852133
sub-08	02	272.723	0.58997732429998	CONV2_speaking	8.0713356852133
sub-08	02	274.7180113379	0.674965986400025	CONV2_speaking	8.0713356852133
sub-08	02	275.6129773243	0.720000000000027	CONV2_speaking	8.0713356852133
sub-08	02	276.5780113379	0.694965986400007	CONV2_speaking	8.0713356852133
sub-08	02	277.5180113379	1.93711207396598	CONV2_speaking	8.0713356852133
sub-08	02	281.103	1.26997732429999	CONV2_speaking	8.0713356852133
sub-08	02	283.6980113379	0.214965986399989	CONV2_speaking	8.0713356852133
sub-08	02	284.6729773243	0.579999999999984	CONV2_speaking	8.0713356852133
sub-08	02	286.9929773243	0.620000000000005	CONV2_speaking	8.0713356852133
sub-08	02	289.123	1.95990929710001	CONV2_speaking	8.0713356852133
sub-08	02	294.7479886621	0.204988662200037	CONV2_speaking	8.0713356852133
sub-08	02	295.5879886621	1.72498866219996	CONV2_speaking	8.0713356852133
sub-08	02	312.82887528345	1.21510204081005	CONV1_listening	4.34072767519494
sub-08	02	315.76397732426	0.220000000000027	CONV1_listening	4.34072767519494
sub-08	02	323.8290113379	0.194965986400007	CONV1_listening	4.34072767519494
sub-08	02	326.674	1.54498866210002	CONV1_listening	4.34072767519494
sub-08	02	333.6090113379	0.23496598639997	CONV1_listening	4.34072767519494
sub-08	02	339.4690113379	0.394965986399995	CONV1_listening	4.34072767519494
sub-08	02	341.514	0.309977324300007	CONV1_listening	4.34072767519494
sub-08	02	344.5440226757	4.0997732427	CONV1_listening	4.34072767519494
sub-08	02	349.0090113379	0.654965986399986	CONV1_listening	4.34072767519494
sub-08	02	355.7440226757	0.21995464859998	CONV1_listening	4.34072767519494
sub-08	02	357.5039773243	0.299999999999955	CONV1_listening	4.34072767519494
sub-08	02	362.3690113379	1.15496598639999	CONV1_listening	4.34072767519494
sub-08	02	364.3240226757	2.09995464859998	CONV1_listening	4.34072767519494
sub-08	02	312.40393197279	0.760045351469955	CONV1_speaking	4.34072767519494
sub-08	02	314.34397732426	1	CONV1_speaking	4.34072767519494
sub-08	02	316.94397732426	0.620000000000005	CONV1_speaking	4.34072767519494
sub-08	02	318.734	4.26997732430004	CONV1_speaking	4.34072767519494
sub-08	02	323.856999281449	2.48697804285086	CONV1_speaking	4.34072767519494
sub-08	02	328.7189886621	0.324988662199985	CONV1_speaking	4.34072767519494
sub-08	02	329.4890113379	0.481204450930079	CONV1_speaking	4.34072767519494
sub-08	02	330.7090113379	1.81496598640001	CONV1_speaking	4.34072767519494
sub-08	02	334.314	0.709977324299985	CONV1_speaking	4.34072767519494
sub-08	02	335.854	1.86997732430001	CONV1_speaking	4.34072767519494
sub-08	02	339.410610163104	1.63336716119596	CONV1_speaking	4.34072767519494
sub-08	02	341.8589886621	1.34498866220002	CONV1_speaking	4.34072767519494
sub-08	02	350.4789886621	0.224988662200019	CONV1_speaking	4.34072767519494
sub-08	02	351.2890113379	0.79496598640003	CONV1_speaking	4.34072767519494
sub-08	02	352.2890113379	0.754965986400009	CONV1_speaking	4.34072767519494
sub-08	02	353.5789886621	1.94498866219999	CONV1_speaking	4.34072767519494
sub-08	02	355.9690113379	1.0149659864	CONV1_speaking	4.34072767519494
sub-08	02	357.274	0.36997732430001	CONV1_speaking	4.34072767519494
sub-08	02	359.254	1.69603007989269	CONV1_speaking	4.34072767519494
sub-08	02	367.954	0.349977324299971	CONV1_speaking	4.34072767519494
sub-08	02	369.2589886621	0.16498866219996	CONV1_speaking	4.34072767519494
sub-08	02	369.7589886621	0.224988662199962	CONV1_speaking	4.34072767519494
sub-08	02	390.08687528345	0.355102040810038	CONV2_listening	8.59704310764811
sub-08	02	397.30696598639	0.815011337909993	CONV2_listening	8.59704310764811
sub-08	02	399.052	1.0099773243	CONV2_listening	8.59704310764811
sub-08	02	405.072	1.70997732429998	CONV2_listening	8.59704310764811
sub-08	02	407.072	0.829977324299989	CONV2_listening	8.59704310764811
sub-08	02	413.5969886621	2.26498866219998	CONV2_listening	8.59704310764811
sub-08	02	416.6169886621	0.864988662200005	CONV2_listening	8.59704310764811
sub-08	02	425.4019773243	0.779999999999973	CONV2_listening	8.59704310764811
sub-08	02	434.6019773243	1.42000000000002	CONV2_listening	8.59704310764811
sub-08	02	440.1419773243	0.759999999999991	CONV2_listening	8.59704310764811
sub-08	02	444.7569886621	0.564988662199994	CONV2_listening	8.59704310764811
sub-08	02	391.21694331066	0.605034013600005	CONV2_speaking	8.59704310764811
sub-08	02	392.10197732426	0.480000000000018	CONV2_speaking	8.59704310764811
sub-08	02	393.512	0.539863945579953	CONV2_speaking	8.59704310764811
sub-08	02	398.8819773243	0.515011337800047	CONV2_speaking	8.59704310764811
sub-08	02	400.412	3.44997732429999	CONV2_speaking	8.59704310764811
sub-08	02	404.7369886621	0.604988662200014	CONV2_speaking	8.59704310764811
sub-08	02	408.8569886621	0.70498866219998	CONV2_speaking	8.59704310764811
sub-08	02	410.0569886621	2.78498866220002	CONV2_speaking	8.59704310764811
sub-08	02	417.9369886621	1.52498866220003	CONV2_speaking	8.59704310764811
sub-08	02	419.772	0.58997732429998	CONV2_speaking	8.59704310764811
sub-08	02	422.0219773243	1.39999999999998	CONV2_speaking	8.59704310764811
sub-08	02	427.5169886621	0.914965986400034	CONV2_speaking	8.59704310764811
sub-08	02	429.0769886621	2.14498866219998	CONV2_speaking	8.59704310764811
sub-08	02	431.7169886621	0.804988662200003	CONV2_speaking	8.59704310764811
sub-08	02	437.892	0.54997732429996	CONV2_speaking	8.59704310764811
sub-08	02	441.2070113379	1.23496598639997	CONV2_speaking	8.59704310764811
