subject	run	onset	duration	trial_type	hnr
sub-01	01	18.92796598639	0.255011337870002	CONV1_listening	4.46771556222175
sub-01	01	21.88302267574	0.579954648520001	CONV1_listening	4.46771556222175
sub-01	01	25.9630226757	1.0199546486	CONV1_listening	4.46771556222175
sub-01	01	27.213	3.0899773243	CONV1_listening	4.46771556222175
sub-01	01	32.0429773243	1.1798185941	CONV1_listening	4.46771556222175
sub-01	01	37.0029773243	4.2148299319	CONV1_listening	4.46771556222175
sub-01	01	41.7430226757	0.9497959184	CONV1_listening	4.46771556222175
sub-01	01	43.0880113379	0.5149659864	CONV1_listening	4.46771556222175
sub-01	01	45.9080113379	1.49496598639999	CONV1_listening	4.46771556222175
sub-01	01	48.3430226757	0.559909297100006	CONV1_listening	4.46771556222175
sub-01	01	50.9879659864	2.2550113379	CONV1_listening	4.46771556222175
sub-01	01	53.3719835085516	2.29099381574844	CONV1_listening	4.46771556222175
sub-01	01	56.7979886621	1.50498866220001	CONV1_listening	4.46771556222175
sub-01	01	70.4116714832143	0.631305841085648	CONV1_listening	4.46771556222175
sub-01	01	71.3480113379	0.704988662099993	CONV1_listening	4.46771556222175
sub-01	01	16.83295464853	0.670022675729999	CONV1_speaking	4.46771556222175
sub-01	01	17.773	0.96997732426	CONV1_speaking	4.46771556222175
sub-01	01	19.473	2.08997732426	CONV1_speaking	4.46771556222175
sub-01	01	22.13798866213	3.32498866217	CONV1_speaking	4.46771556222175
sub-01	01	30.5779886621	1.0149659864	CONV1_speaking	4.46771556222175
sub-01	01	33.4680113379	2.5349659864	CONV1_speaking	4.46771556222175
sub-01	01	42.5630226757	3.27649439556799	CONV1_speaking	4.46771556222175
sub-01	01	50.9379886621	0.404988662199997	CONV1_speaking	4.46771556222175
sub-01	01	55.633	2.6299773243	CONV1_speaking	4.46771556222175
sub-01	01	59.3829773243	0.724988662100003	CONV1_speaking	4.46771556222175
sub-01	01	60.513	2.72997732429999	CONV1_speaking	4.46771556222175
sub-01	01	65.873	0.46997732429999	CONV1_speaking	4.46771556222175
sub-01	01	67.5379886621	1.5449886622	CONV1_speaking	4.46771556222175
sub-01	01	95.17898866213	0.984988662130007	CONV2_listening	5.14587471745992
sub-01	01	100.4089659864	1.48399609661848	CONV2_listening	5.14587471745992
sub-01	01	107.8839773243	1.95893665539337	CONV2_listening	5.14587471745992
sub-01	01	117.874	3.44997732430001	CONV2_listening	5.14587471745992
sub-01	01	129.8189886621	2.28498866219999	CONV2_listening	5.14587471745992
sub-01	01	145.254	2.76997732430002	CONV2_listening	5.14587471745992
sub-01	01	91.83390929705	2.76498866212999	CONV2_speaking	5.14587471745992
sub-01	01	96.44402267574	3.55995464855999	CONV2_speaking	5.14587471745992
sub-01	01	103.0789886621	2.36498866219999	CONV2_speaking	5.14587471745992
sub-01	01	106.074	1.50997732430001	CONV2_speaking	5.14587471745992
sub-01	01	111.2989886621	1.56498866219999	CONV2_speaking	5.14587471745992
sub-01	01	113.0989886621	0.564988662199994	CONV2_speaking	5.14587471745992
sub-01	01	114.454248273911	0.889729050389292	CONV2_speaking	5.14587471745992
sub-01	01	116.554	0.869977324299995	CONV2_speaking	5.14587471745992
sub-01	01	122.0839773243	1.29999999999998	CONV2_speaking	5.14587471745992
sub-01	01	124.254	2.6899773243	CONV2_speaking	5.14587471745992
sub-01	01	127.4989886621	0.824988662200013	CONV2_speaking	5.14587471745992
sub-01	01	133.254	0.969977324300004	CONV2_speaking	5.14587471745992
sub-01	01	136.263504245735	0.77553823645755	CONV2_speaking	5.14587471745992
sub-01	01	138.7490113379	0.834965986399993	CONV2_speaking	5.14587471745992
sub-01	01	139.9490113379	1.0149659864	CONV2_speaking	5.14587471745992
sub-01	01	142.4090113379	0.774965986400019	CONV2_speaking	5.14587471745992
sub-01	01	144.9690113379	0.679954648500029	CONV2_speaking	5.14587471745992
sub-01	01	171.91893197279	2.08004535147001	CONV1_listening	4.05505361023208
sub-01	01	174.21902267574	2.61995464856	CONV1_listening	4.05505361023208
sub-01	01	177.469	4.28984126979998	CONV1_listening	4.05505361023208
sub-01	01	185.1539886621	1.50498866220002	CONV1_listening	4.05505361023208
sub-01	01	203.289	6.7048979592	CONV1_listening	4.05505361023208
sub-01	01	213.59113866105	1.43282732534988	CONV1_listening	4.05505361023208
sub-01	01	216.6440113379	1.5149659864	CONV1_listening	4.05505361023208
sub-01	01	220.3539886621	2.26498866219998	CONV1_listening	4.05505361023208
sub-01	01	222.8339886621	2.3950113379	CONV1_listening	4.05505361023208
sub-01	01	167.165874192256	4.97310313200362	CONV1_speaking	4.05505361023208
sub-01	01	174.37398866213	0.144988662130004	CONV1_speaking	4.05505361023208
sub-01	01	177.529	0.749977324299977	CONV1_speaking	4.05505361023208
sub-01	01	180.969	0.509977324299996	CONV1_speaking	4.05505361023208
sub-01	01	182.011947799227	1.96702952507349	CONV1_speaking	4.05505361023208
sub-01	01	184.3989773243	1.52000000000001	CONV1_speaking	4.05505361023208
sub-01	01	187.2389773243	1.15816650670664	CONV1_speaking	4.05505361023208
sub-01	01	188.6990226757	1.43995464860001	CONV1_speaking	4.05505361023208
sub-01	01	190.789	1.9399092971	CONV1_speaking	4.05505361023208
sub-01	01	193.3240113379	2.21301820125777	CONV1_speaking	4.05505361023208
sub-01	01	195.789	1.38997732429999	CONV1_speaking	4.05505361023208
sub-01	01	197.7339886621	1.85999999999999	CONV1_speaking	4.05505361023208
sub-01	01	200.3589773243	2.34	CONV1_speaking	4.05505361023208
sub-01	01	211.489	1.86997732430001	CONV1_speaking	4.05505361023208
sub-01	01	215.8939886621	0.424988662200008	CONV1_speaking	4.05505361023208
sub-01	01	219.149	0.499909297100004	CONV1_speaking	4.05505361023208
sub-01	01	247.14690929705	1.33505668933998	CONV2_listening	4.76202590159043
sub-01	01	259.0819206349	0.435056689400028	CONV2_listening	4.76202590159043
sub-01	01	259.747	0.689977324300003	CONV2_listening	4.76202590159043
sub-01	01	262.307	2.02997732429998	CONV2_listening	4.76202590159043
sub-01	01	272.947	0.389977324299991	CONV2_listening	4.76202590159043
sub-01	01	280.7369773243	2.44	CONV2_listening	4.76202590159043
sub-01	01	288.907	2.5699773243	CONV2_listening	4.76202590159043
sub-01	01	293.7369773243	2.52000000000004	CONV2_listening	4.76202590159043
sub-01	01	243.93702267574	2.44776007065019	CONV2_speaking	4.76202590159043
sub-01	01	246.705041472086	0.95072689572433	CONV2_speaking	4.76202590159043
sub-01	01	248.69697732426	1.69999999999999	CONV2_speaking	4.76202590159043
sub-01	01	250.71198866213	5.12498866217001	CONV2_speaking	4.76202590159043
sub-01	01	256.0719886621	4.20149659867093	CONV2_speaking	4.76202590159043
sub-01	01	265.336563808132	2.20413358272742	CONV2_speaking	4.76202590159043
sub-01	01	267.955149859406	1.13032491421916	CONV2_speaking	4.76202590159043
sub-01	01	269.307	0.871122190703829	CONV2_speaking	4.76202590159043
sub-01	01	270.467	1.0863508363372	CONV2_speaking	4.76202590159043
sub-01	01	271.7620113379	0.934965986400016	CONV2_speaking	4.76202590159043
sub-01	01	274.067	3.98997732429996	CONV2_speaking	4.76202590159043
sub-01	01	278.56112920344	1.41584812085949	CONV2_speaking	4.76202590159043
sub-01	01	284.4519886621	3.17632653064373	CONV2_speaking	4.76202590159043
sub-01	01	293.5020113379	1.10988662130001	CONV2_speaking	4.76202590159043
sub-01	01	297.852260770975	3.65464852612496	CONV2_speaking	4.76202590159043
sub-01	01	320.02289795918	1.58507936507999	CONV1_listening	4.29172052641767
sub-01	01	326.2729659864	2.8952235365719	CONV1_listening	4.29172052641767
sub-01	01	330.718	0.229977324299966	CONV1_listening	4.29172052641767
sub-01	01	339.3429886621	2.27761366585321	CONV1_listening	4.29172052641767
sub-01	01	341.8029886621	1.02329357435366	CONV1_listening	4.29172052641767
sub-01	01	343.3079773243	0.980000000000018	CONV1_listening	4.29172052641767
sub-01	01	344.5879773243	2.63990929700003	CONV1_listening	4.29172052641767
sub-01	01	347.8330113379	4.04326530609092	CONV1_listening	4.29172052641767
sub-01	01	352.0229886621	1.66498866220002	CONV1_listening	4.29172052641767
sub-01	01	354.6279773243	2.2353868406733	CONV1_listening	4.29172052641767
sub-01	01	361.4229886621	0.404988662199969	CONV1_listening	4.29172052641767
sub-01	01	363.638	1.96997732430003	CONV1_listening	4.29172052641767
sub-01	01	371.1029886621	1.78498866219996	CONV1_listening	4.29172052641767
sub-01	01	373.2079773243	1.91002267570002	CONV1_listening	4.29172052641767
sub-01	01	316.927886621315	3.84009070294502	CONV1_speaking	4.29172052641767
sub-01	01	320.98802267574	0.41995464851999	CONV1_speaking	4.29172052641767
sub-01	01	321.987993208419	0.779984115841387	CONV1_speaking	4.29172052641767
sub-01	01	323.04802267574	2.81496598639001	CONV1_speaking	4.29172052641767
sub-01	01	330.8829886621	4.3049886622	CONV1_speaking	4.29172052641767
sub-01	01	335.6530113379	1.73496598639997	CONV1_speaking	4.29172052641767
sub-01	01	337.7829886621	2.10498866219996	CONV1_speaking	4.29172052641767
sub-01	01	341.790151065086	0.497826259213923	CONV1_speaking	4.29172052641767
sub-01	01	357.5730113379	0.334965986399993	CONV1_speaking	4.29172052641767
sub-01	01	358.1679773243	3.15999999999997	CONV1_speaking	4.29172052641767
sub-01	01	362.0829886621	1.36498866220001	CONV1_speaking	4.29172052641767
sub-01	01	364.3330113379	1.19496598639995	CONV1_speaking	4.29172052641767
sub-01	01	365.9629886621	2.3049886622	CONV1_speaking	4.29172052641767
sub-01	01	368.8679773243	0.920000000000016	CONV1_speaking	4.29172052641767
sub-01	01	370.1930113379	0.814965986400011	CONV1_speaking	4.29172052641767
sub-01	01	398.22287528345	0.995102040809968	CONV2_listening	4.39688554322334
sub-01	01	403.8329886621	1.56498866219999	CONV2_listening	4.39688554322334
sub-01	01	406.6179773243	0.400000000000034	CONV2_listening	4.39688554322334
sub-01	01	413.228	3.20997732430004	CONV2_listening	4.39688554322334
sub-01	01	428.6429659864	0.995011337899996	CONV2_listening	4.39688554322334
sub-01	01	434.6779773243	2.76000000000005	CONV2_listening	4.39688554322334
sub-01	01	450.728	0.980000000000018	CONV2_listening	4.39688554322334
sub-01	01	394.059326660803	1.51865066345658	CONV2_speaking	4.39688554322334
sub-01	01	396.13298866213	1.58498866213	CONV2_speaking	4.39688554322334
sub-01	01	398.17298866213	0.904988662129995	CONV2_speaking	4.39688554322334
sub-01	01	400.00301133787	3.27496598643	CONV2_speaking	4.39688554322334
sub-01	01	408.150710591403	0.6422780706975	CONV2_speaking	4.39688554322334
sub-01	01	410.053424197005	2.38455312729525	CONV2_speaking	4.39688554322334
sub-01	01	413.1929886621	0.324988662199985	CONV2_speaking	4.39688554322334
sub-01	01	419.0180226757	2.39995464859999	CONV2_speaking	4.39688554322334
sub-01	01	422.4829659864	2.04993197279998	CONV2_speaking	4.39688554322334
sub-01	01	424.8830113379	2.1349659864	CONV2_speaking	4.39688554322334
sub-01	01	427.5830113379	1.09496598639998	CONV2_speaking	4.39688554322334
sub-01	01	430.068	1.88997732429999	CONV2_speaking	4.39688554322334
sub-01	01	432.388	1.7499773243	CONV2_speaking	4.39688554322334
sub-01	01	434.460979535221	0.852009126879182	CONV2_speaking	4.39688554322334
sub-01	01	438.228	1.72997732430002	CONV2_speaking	4.39688554322334
sub-01	01	441.5380226757	3.29995464860002	CONV2_speaking	4.39688554322334
sub-01	01	445.3329886621	2.1249886622	CONV2_speaking	4.39688554322334
sub-01	01	448.6129886621	1.50498866219999	CONV2_speaking	4.39688554322334
