subject	run	onset	duration	trial_type	hnr
sub-24	02	17.55590929705	2.31006802721	CONV1_listening	7.05024974331396
sub-24	02	20.55101133787	5.37492063493	CONV1_listening	7.05024974331396
sub-24	02	27.496	4.2499773243	CONV1_listening	7.05024974331396
sub-24	02	32.3460226757	0.879954648600005	CONV1_listening	7.05024974331396
sub-24	02	35.9110113379	3.0949659864	CONV1_listening	7.05024974331396
sub-24	02	41.0259773243	0.240000000000002	CONV1_listening	7.05024974331396
sub-24	02	42.476	2.1699773243	CONV1_listening	7.05024974331396
sub-24	02	53.6209886621	0.839818594100002	CONV1_listening	7.05024974331396
sub-24	02	55.976	2.0899773243	CONV1_listening	7.05024974331396
sub-24	02	59.1260226757	0.739954648599998	CONV1_listening	7.05024974331396
sub-24	02	60.776	2.7699773243	CONV1_listening	7.05024974331396
sub-24	02	64.8259773243	1.5898412698	CONV1_listening	7.05024974331396
sub-24	02	66.8309659864	2.0550113379	CONV1_listening	7.05024974331396
sub-24	02	69.2059773243	0.939999999999998	CONV1_listening	7.05024974331396
sub-24	02	14.54089795918	2.20507936508	CONV1_speaking	7.05024974331396
sub-24	02	26.0459773243	0.800000000000001	CONV1_speaking	7.05024974331396
sub-24	02	34.5409886621	0.3648979592	CONV1_speaking	7.05024974331396
sub-24	02	40.1809886621	0.404943310699998	CONV1_speaking	7.05024974331396
sub-24	02	47.156	3.6099773243	CONV1_speaking	7.05024974331396
sub-24	02	70.5509659864	1.37859410430001	CONV1_speaking	7.05024974331396
sub-24	02	93.88987528345	0.375102040810006	CONV2_listening	8.15834192274898
sub-24	02	96.65998866213	0.724988662130002	CONV2_listening	8.15834192274898
sub-24	02	99.835	1.0699773243	CONV2_listening	8.15834192274898
sub-24	02	105.795	1.3699773243	CONV2_listening	8.15834192274898
sub-24	02	111.415	0.864988662100004	CONV2_listening	8.15834192274898
sub-24	02	116.2499659864	1.5550113379	CONV2_listening	8.15834192274898
sub-24	02	121.1299659864	1.5550113379	CONV2_listening	8.15834192274898
sub-24	02	128.7099659864	0.735011337900005	CONV2_listening	8.15834192274898
sub-24	02	135.755	0.849977324299999	CONV2_listening	8.15834192274898
sub-24	02	91.42992063492	1.39006802721001	CONV2_speaking	8.15834192274898
sub-24	02	93.32996598639	1.88498866214	CONV2_speaking	8.15834192274898
sub-24	02	99.50996598639	0.595011337909995	CONV2_speaking	8.15834192274898
sub-24	02	101.9049319728	1.2400453515	CONV2_speaking	8.15834192274898
sub-24	02	108.1699659864	1.9950113379	CONV2_speaking	8.15834192274898
sub-24	02	115.7700113379	1.228479203294	CONV2_speaking	8.15834192274898
sub-24	02	119.295	0.5149659864	CONV2_speaking	8.15834192274898
sub-24	02	123.276000782287	1.12897654201318	CONV2_speaking	8.15834192274898
sub-24	02	126.0900113379	0.689977324200015	CONV2_speaking	8.15834192274898
sub-24	02	139.877316429392	0.867660894907829	CONV2_speaking	8.15834192274898
sub-24	02	167.87388662132	1.16009070294001	CONV1_listening	6.33253558255442
sub-24	02	178.604	0.149977324299982	CONV1_listening	6.33253558255442
sub-24	02	180.7339773243	0.14498866209999	CONV1_listening	6.33253558255442
sub-24	02	186.7289886621	0.164988662200017	CONV1_listening	6.33253558255442
sub-24	02	192.704	0.509977324299996	CONV1_listening	6.33253558255442
sub-24	02	193.861819107365	0.249077973752776	CONV1_listening	6.33253558255442
sub-24	02	194.6190113379	3.92018140586418	CONV1_listening	6.33253558255442
sub-24	02	199.5339773243	2.98000000000002	CONV1_listening	6.33253558255442
sub-24	02	208.924	3.2899773243	CONV1_listening	6.33253558255442
sub-24	02	216.1990113379	1.7349659864	CONV1_listening	6.33253558255442
sub-24	02	218.616123411866	2.99785391243398	CONV1_listening	6.33253558255442
sub-24	02	222.9540226757	2.1299773243	CONV1_listening	6.33253558255442
sub-24	02	169.99388662132	1.50009070294001	CONV1_speaking	6.33253558255442
sub-24	02	173.284	2.68997732426001	CONV1_speaking	6.33253558255442
sub-24	02	176.664	4.04997732429999	CONV1_speaking	6.33253558255442
sub-24	02	181.824	4.6899773243	CONV1_speaking	6.33253558255442
sub-24	02	187.724	4.33995464850003	CONV1_speaking	6.33253558255442
sub-24	02	193.929691955584	0.826486003816086	CONV1_speaking	6.33253558255442
sub-24	02	203.8089886621	1.31239440614186	CONV1_speaking	6.33253558255442
sub-24	02	213.4139773243	2.06	CONV1_speaking	6.33253558255442
sub-24	02	218.184605654647	0.288704015031669	CONV1_speaking	6.33253558255442
sub-24	02	251.31792063492	0.340045351469996	CONV2_listening	7.70232519997158
sub-24	02	260.6279433107	0.725034013600009	CONV2_listening	7.70232519997158
sub-24	02	270.863	1.36997732430001	CONV2_listening	7.70232519997158
sub-24	02	278.3279886621	0.324988662200042	CONV2_listening	7.70232519997158
sub-24	02	287.4579659864	1.75501133790004	CONV2_listening	7.70232519997158
sub-24	02	295.2129773243	2.39999999999998	CONV2_listening	7.70232519997158
sub-24	02	244.56290929705	2.11505668934001	CONV2_speaking	7.70232519997158
sub-24	02	248.25293197279	1.13002267574001	CONV2_speaking	7.70232519997158
sub-24	02	255.8079886621	2.86997732430001	CONV2_speaking	7.70232519997158
sub-24	02	266.0079886621	2.07999999999998	CONV2_speaking	7.70232519997158
sub-24	02	270.783	1.2499773243	CONV2_speaking	7.70232519997158
sub-24	02	276.4979659864	0.6150113379	CONV2_speaking	7.70232519997158
sub-24	02	282.9129773243	0.839999999999975	CONV2_speaking	7.70232519997158
sub-24	02	290.3079886621	1.40997732430003	CONV2_speaking	7.70232519997158
sub-24	02	298.5929773243	0.704988662099993	CONV2_speaking	7.70232519997158
sub-24	02	300.8780113379	0.778548752799963	CONV2_speaking	7.70232519997158
sub-24	02	322.06295464853	0.830022675729992	CONV1_listening	7.4065134122495
sub-24	02	324.53293197279	1.19487528345002	CONV1_listening	7.4065134122495
sub-24	02	328.248622421602	1.17936624049764	CONV1_listening	7.4065134122495
sub-24	02	329.763	3.5699773243	CONV1_listening	7.4065134122495
sub-24	02	334.1780113379	1.27496598639999	CONV1_listening	7.4065134122495
sub-24	02	337.2930226757	0.80979591839997	CONV1_listening	7.4065134122495
sub-24	02	338.843	3.32997732429999	CONV1_listening	7.4065134122495
sub-24	02	345.8279886621	0.244988662200001	CONV1_listening	7.4065134122495
sub-24	02	346.4530226757	0.789058337539984	CONV1_listening	7.4065134122495
sub-24	02	354.6530226757	7.41995464860003	CONV1_listening	7.4065134122495
sub-24	02	365.123	0.329977324299989	CONV1_listening	7.4065134122495
sub-24	02	366.923	5.58498866209999	CONV1_listening	7.4065134122495
sub-24	02	373.6879886621	0.224988662199962	CONV1_listening	7.4065134122495
sub-24	02	374.383	2.86997732430001	CONV1_listening	7.4065134122495
sub-24	02	336.1929319728	0.365034013599995	CONV1_speaking	7.4065134122495
sub-24	02	344.150581411377	0.342395912923394	CONV1_speaking	7.4065134122495
sub-24	02	345.0579659864	0.595011337900019	CONV1_speaking	7.4065134122495
sub-24	02	345.984701036284	0.408276288016452	CONV1_speaking	7.4065134122495
sub-24	02	349.236810757495	4.07616656680472	CONV1_speaking	7.4065134122495
sub-24	02	353.7479886621	0.739909297099985	CONV1_speaking	7.4065134122495
sub-24	02	362.5929773243	2.24000000000001	CONV1_speaking	7.4065134122495
sub-24	02	365.1380113379	1.13492063490003	CONV1_speaking	7.4065134122495
sub-24	02	373.303	0.309977324300007	CONV1_speaking	7.4065134122495
sub-24	02	398.45792063492	0.41505668934002	CONV2_listening	7.74258403077525
sub-24	02	404.41293197279	1.22000000000003	CONV2_listening	7.74258403077525
sub-24	02	408.403	0.329977324299989	CONV2_listening	7.74258403077525
sub-24	02	411.7529773243	1.69999999999999	CONV2_listening	7.74258403077525
sub-24	02	423.8529773243	0.400000000000034	CONV2_listening	7.74258403077525
sub-24	02	425.703	0.949977324299994	CONV2_listening	7.74258403077525
sub-24	02	430.8579659864	1.5550113379	CONV2_listening	7.74258403077525
sub-24	02	438.2079886621	0.724988662200019	CONV2_listening	7.74258403077525
sub-24	02	442.663	0.829977324299989	CONV2_listening	7.74258403077525
sub-24	02	453.6729773243	0.720000000000027	CONV2_listening	7.74258403077525
sub-24	02	397.87792063492	2.37505668934	CONV2_speaking	7.74258403077525
sub-24	02	401.023	0.929977324259994	CONV2_speaking	7.74258403077525
sub-24	02	402.570426979593	0.827539006796712	CONV2_speaking	7.74258403077525
sub-24	02	406.4079886621	0.504988662199992	CONV2_speaking	7.74258403077525
sub-24	02	411.0079886621	1.56498866219999	CONV2_speaking	7.74258403077525
sub-24	02	414.4679886621	0.324988662199985	CONV2_speaking	7.74258403077525
sub-24	02	416.4729773243	1.06	CONV2_speaking	7.74258403077525
sub-24	02	420.383	1.92997732430001	CONV2_speaking	7.74258403077525
sub-24	02	427.4729773243	1.74000000000001	CONV2_speaking	7.74258403077525
sub-24	02	434.9479886621	0.94498866219999	CONV2_speaking	7.74258403077525
sub-24	02	446.7330226757	1.33995464859998	CONV2_speaking	7.74258403077525
sub-24	02	450.9980113379	1.19496598640001	CONV2_speaking	7.74258403077525
