subject	run	onset	duration	trial_type	hnr
sub-13	02	17.011	0.269977324260001	CONV1_listening	6.51187502233966
sub-13	02	21.65598866213	4.28498866217	CONV1_listening	6.51187502233966
sub-13	02	33.2359886621	5.3049886622	CONV1_listening	6.51187502233966
sub-13	02	40.1610226757	2.9799546486	CONV1_listening	6.51187502233966
sub-13	02	43.7359886621	0.544988662199998	CONV1_listening	6.51187502233966
sub-13	02	47.2660113379	0.254965986399995	CONV1_listening	6.51187502233966
sub-13	02	48.1809773243	1.1498412698	CONV1_listening	6.51187502233966
sub-13	02	50.431	0.609977324299997	CONV1_listening	6.51187502233966
sub-13	02	51.4010226757	0.979954648600007	CONV1_listening	6.51187502233966
sub-13	02	52.5860113379	3.1749659864	CONV1_listening	6.51187502233966
sub-13	02	62.0409773243	0.640000000000001	CONV1_listening	6.51187502233966
sub-13	02	64.5959886621	6.2249886622	CONV1_listening	6.51187502233966
sub-13	02	15.2244496434056	1.51652768085438	CONV1_speaking	6.51187502233966
sub-13	02	17.29598866213	3.58498866213	CONV1_speaking	6.51187502233966
sub-13	02	26.5860113379	0.314965986400001	CONV1_speaking	6.51187502233966
sub-13	02	28.3009773243	0.840000000000003	CONV1_speaking	6.51187502233966
sub-13	02	29.6809773243	3.179909297	CONV1_speaking	6.51187502233966
sub-13	02	39.051	0.3099773243	CONV1_speaking	6.51187502233966
sub-13	02	45.3759886621	0.304988662200003	CONV1_speaking	6.51187502233966
sub-13	02	45.891	0.3099773243	CONV1_speaking	6.51187502233966
sub-13	02	56.2959886621	0.704988662200002	CONV1_speaking	6.51187502233966
sub-13	02	61.1359886621	0.324988662199999	CONV1_speaking	6.51187502233966
sub-13	02	92.09888662132	0.560090702940002	CONV2_listening	7.2980006552746
sub-13	02	101.6989773243	0.560000000000002	CONV2_listening	7.2980006552746
sub-13	02	111.7939886621	0.524988662200002	CONV2_listening	7.2980006552746
sub-13	02	113.9589773243	1.23999999999999	CONV2_listening	7.2980006552746
sub-13	02	122.5639659864	0.935011337900008	CONV2_listening	7.2980006552746
sub-13	02	129.1589773243	0.860000000000014	CONV2_listening	7.2980006552746
sub-13	02	136.6539886621	1.32498866219998	CONV2_listening	7.2980006552746
sub-13	02	93.11389795918	0.460045351480005	CONV2_speaking	7.2980006552746
sub-13	02	95.3261499063431	0.952827417916922	CONV2_speaking	7.2980006552746
sub-13	02	97.53398866213	2.78498866216999	CONV2_speaking	7.2980006552746
sub-13	02	103.329	2.52997732430001	CONV2_speaking	7.2980006552746
sub-13	02	107.029	2.3299773243	CONV2_speaking	7.2980006552746
sub-13	02	116.9590226757	2.01995464859999	CONV2_speaking	7.2980006552746
sub-13	02	124.0440113379	0.294965986400001	CONV2_speaking	7.2980006552746
sub-13	02	131.2240113379	1.0749659864	CONV2_speaking	7.2980006552746
sub-13	02	139.9390226757	0.879954648600005	CONV2_speaking	7.2980006552746
sub-13	02	143.7339886621	0.244988662200001	CONV2_speaking	7.2980006552746
sub-13	02	145.3390226757	0.779954648600011	CONV2_speaking	7.2980006552746
sub-13	02	148.0440113379	0.518548752800001	CONV2_speaking	7.2980006552746
sub-13	02	168.29296598639	0.295011337869994	CONV1_listening	6.55656266398479
sub-13	02	169.00298866213	1.03990929705	CONV1_listening	6.55656266398479
sub-13	02	173.398	0.229977324259977	CONV1_listening	6.55656266398479
sub-13	02	177.438	3.38997732429999	CONV1_listening	6.55656266398479
sub-13	02	183.778	1.3249886621	CONV1_listening	6.55656266398479
sub-13	02	185.3629886621	1.5849886622	CONV1_listening	6.55656266398479
sub-13	02	194.9730113379	2.25496598640001	CONV1_listening	6.55656266398479
sub-13	02	197.8229886621	2.94498866219999	CONV1_listening	6.55656266398479
sub-13	02	201.178	2.86485260769999	CONV1_listening	6.55656266398479
sub-13	02	204.9130113379	1.69496598639998	CONV1_listening	6.55656266398479
sub-13	02	209.5930113379	0.894965986400024	CONV1_listening	6.55656266398479
sub-13	02	222.1530113379	3.0049886621	CONV1_listening	6.55656266398479
sub-13	02	169.08788662132	0.365079365069988	CONV1_speaking	6.55656266398479
sub-13	02	172.10298866213	1.18498866213002	CONV1_speaking	6.55656266398479
sub-13	02	175.358	1.9699773243	CONV1_speaking	6.55656266398479
sub-13	02	181.2680226757	0.879954648599977	CONV1_speaking	6.55656266398479
sub-13	02	183.5730113379	0.734965986399999	CONV1_speaking	6.55656266398479
sub-13	02	187.2880226757	0.4799546486	CONV1_speaking	6.55656266398479
sub-13	02	188.9730113379	5.18997732420002	CONV1_speaking	6.55656266398479
sub-13	02	207.5730113379	0.379863945500006	CONV1_speaking	6.55656266398479
sub-13	02	214.638	0.269977324300015	CONV1_speaking	6.55656266398479
sub-13	02	215.1930113379	1.41496598640001	CONV1_speaking	6.55656266398479
sub-13	02	217.0629886621	2.48498866219998	CONV1_speaking	6.55656266398479
sub-13	02	220.1629886621	1.6849886622	CONV1_speaking	6.55656266398479
sub-13	02	252.02292063492	0.360045351470006	CONV2_listening	7.09060667666107
sub-13	02	254.8129433107	1.22503401360001	CONV2_listening	7.09060667666107
sub-13	02	260.3329886621	0.284988662200021	CONV2_listening	7.09060667666107
sub-13	02	266.108	1.26997732429999	CONV2_listening	7.09060667666107
sub-13	02	274.3029659864	1.39002267569998	CONV2_listening	7.09060667666107
sub-13	02	282.8980226757	1.17995464860002	CONV2_listening	7.09060667666107
sub-13	02	289.4830113379	0.814965986400011	CONV2_listening	7.09060667666107
sub-13	02	246.66790929705	0.845079365079982	CONV2_speaking	7.09060667666107
sub-13	02	250.00296598639	0.990022675740022	CONV2_speaking	7.09060667666107
sub-13	02	254.3529886621	0.324988662199985	CONV2_speaking	7.09060667666107
sub-13	02	256.3579773243	1.24494331059998	CONV2_speaking	7.09060667666107
sub-13	02	258.1629659864	0.755011337899987	CONV2_speaking	7.09060667666107
sub-13	02	260.988	1.54997732430002	CONV2_speaking	7.09060667666107
sub-13	02	263.3630113379	1.01716812833149	CONV2_speaking	7.09060667666107
sub-13	02	265.668	0.789977324300025	CONV2_speaking	7.09060667666107
sub-13	02	267.9430113379	0.294784580499993	CONV2_speaking	7.09060667666107
sub-13	02	269.0729886621	1.6849886622	CONV2_speaking	7.09060667666107
sub-13	02	276.8979773243	1.53999999999996	CONV2_speaking	7.09060667666107
sub-13	02	284.728	0.289977324299969	CONV2_speaking	7.09060667666107
sub-13	02	291.728	5.20997732429998	CONV2_speaking	7.09060667666107
sub-13	02	297.8629659864	0.775011337899969	CONV2_speaking	7.09060667666107
sub-13	02	300.9379773243	0.460000000000036	CONV2_speaking	7.09060667666107
sub-13	02	322.42989795918	0.405079365079985	CONV1_listening	6.40801608666941
sub-13	02	323.025	1.04997732426	CONV1_listening	6.40801608666941
sub-13	02	330.0749773243	0.619999999999948	CONV1_listening	6.40801608666941
sub-13	02	330.925	3.16100078228686	CONV1_listening	6.40801608666941
sub-13	02	338.9699886621	0.224988662199962	CONV1_listening	6.40801608666941
sub-13	02	343.2099886621	2.3049886622	CONV1_listening	6.40801608666941
sub-13	02	347.0000113379	1.6349659864	CONV1_listening	6.40801608666941
sub-13	02	352.9600113379	0.294965986399973	CONV1_listening	6.40801608666941
sub-13	02	353.5299886621	1.96904768642281	CONV1_listening	6.40801608666941
sub-13	02	358.1749773243	0.740000000000009	CONV1_listening	6.40801608666941
sub-13	02	359.4149773243	0.5	CONV1_listening	6.40801608666941
sub-13	02	361.145	3.06608783668929	CONV1_listening	6.40801608666941
sub-13	02	371.7150226757	1.17995464860002	CONV1_listening	6.40801608666941
sub-13	02	322.13493197279	0.580045351470005	CONV1_speaking	6.40801608666941
sub-13	02	324.77992063492	0.315056689339997	CONV1_speaking	6.40801608666941
sub-13	02	326.343546528862	3.40644213323839	CONV1_speaking	6.40801608666941
sub-13	02	334.5600113379	0.269977324199999	CONV1_speaking	6.40801608666941
sub-13	02	335.4200113379	3.21496598640005	CONV1_speaking	6.40801608666941
sub-13	02	339.6499886621	3.20498866219998	CONV1_speaking	6.40801608666941
sub-13	02	348.9949773243	0.819999999999993	CONV1_speaking	6.40801608666941
sub-13	02	350.2149773243	1.35196971856385	CONV1_speaking	6.40801608666941
sub-13	02	355.9099886621	0.964988662199971	CONV1_speaking	6.40801608666941
sub-13	02	365.365	0.249977324300005	CONV1_speaking	6.40801608666941
sub-13	02	366.3899886621	0.624988662200053	CONV1_speaking	6.40801608666941
sub-13	02	368.005	3.12997732430006	CONV1_speaking	6.40801608666941
sub-13	02	373.6299886621	3.98498866220001	CONV1_speaking	6.40801608666941
sub-13	02	400.25887528345	0.395102040810002	CONV2_listening	7.56424979801521
sub-13	02	414.9689886621	1.10498866220001	CONV2_listening	7.56424979801521
sub-13	02	417.5989659864	1.2350113379	CONV2_listening	7.56424979801521
sub-13	02	424.6190113379	1.05496598639996	CONV2_listening	7.56424979801521
sub-13	02	430.5489886621	0.324988662199985	CONV2_listening	7.56424979801521
sub-13	02	431.124	0.58997732429998	CONV2_listening	7.56424979801521
sub-13	02	442.2590113379	1.29496598639997	CONV2_listening	7.56424979801521
sub-13	02	398.20889795918	1.02507936507999	CONV2_speaking	7.56424979801521
sub-13	02	401.76898866213	0.924988662130033	CONV2_speaking	7.56424979801521
sub-13	02	403.27397732426	2.48000000000002	CONV2_speaking	7.56424979801521
sub-13	02	406.4689886621	2.20498866219998	CONV2_speaking	7.56424979801521
sub-13	02	411.7489886621	0.904988662200026	CONV2_speaking	7.56424979801521
sub-13	02	416.8990113379	0.5149659864	CONV2_speaking	7.56424979801521
sub-13	02	420.0140226757	0.474875283500012	CONV2_speaking	7.56424979801521
sub-13	02	421.5939773243	1.56	CONV2_speaking	7.56424979801521
sub-13	02	426.0140226757	0.95995464859999	CONV2_speaking	7.56424979801521
sub-13	02	427.4539773243	0.919999999999959	CONV2_speaking	7.56424979801521
sub-13	02	432.3990113379	0.194965986400007	CONV2_speaking	7.56424979801521
sub-13	02	434.8990113379	0.314965986400011	CONV2_speaking	7.56424979801521
sub-13	02	445.3190113379	0.874965986400014	CONV2_speaking	7.56424979801521
sub-13	02	447.9990113379	0.334965986399993	CONV2_speaking	7.56424979801521
sub-13	02	450.7140226757	0.379954648600005	CONV2_speaking	7.56424979801521
