subject	run	onset	duration	trial_type	hnr
sub-11	04	22.994	5.9699773243	CONV1_listening	7.68529397229485
sub-11	04	41.4589886621	0.284988662200007	CONV1_listening	7.68529397229485
sub-11	04	43.4890113379	0.334965986400007	CONV1_listening	7.68529397229485
sub-11	04	44.0789886621	4.6249886622	CONV1_listening	7.68529397229485
sub-11	04	50.6389886621	5.7649886622	CONV1_listening	7.68529397229485
sub-11	04	59.2839773243	0.254965986400009	CONV1_listening	7.68529397229485
sub-11	04	67.354	0.229977324299995	CONV1_listening	7.68529397229485
sub-11	04	69.2490113379	0.214965986400003	CONV1_listening	7.68529397229485
sub-11	04	71.1290113379	0.844988662100008	CONV1_listening	7.68529397229485
sub-11	04	15.3569015758796	6.76707574838044	CONV1_speaking	7.68529397229485
sub-11	04	29.9418856488096	0.362091675490419	CONV1_speaking	7.68529397229485
sub-11	04	30.7090113379	0.783950783824693	CONV1_speaking	7.68529397229485
sub-11	04	31.8839773243	1.64	CONV1_speaking	7.68529397229485
sub-11	04	34.1490113379	1.52732857026364	CONV1_speaking	7.68529397229485
sub-11	04	36.294	0.794875283400003	CONV1_speaking	7.68529397229485
sub-11	04	38.114	2.7699773243	CONV1_speaking	7.68529397229485
sub-11	04	41.4642725269815	0.359704797318464	CONV1_speaking	7.68529397229485
sub-11	04	42.6417320392675	0.222245285032528	CONV1_speaking	7.68529397229485
sub-11	04	55.474	0.309977324299993	CONV1_speaking	7.68529397229485
sub-11	04	56.1789886621	1.9049886622	CONV1_speaking	7.68529397229485
sub-11	04	58.314	0.704988662099993	CONV1_speaking	7.68529397229485
sub-11	04	59.5040226757	1.43995464859999	CONV1_speaking	7.68529397229485
sub-11	04	61.2239773243	3.30000000000001	CONV1_speaking	7.68529397229485
sub-11	04	65.0989886621	1.8449886622	CONV1_speaking	7.68529397229485
sub-11	04	67.2716086592694	1.38691144475986	CONV1_speaking	7.68529397229485
sub-11	04	69.2040226757	1.3199546486	CONV1_speaking	7.68529397229485
sub-11	04	71.3290113379	0.598548752799999	CONV1_speaking	7.68529397229485
sub-11	04	93.52589795918	0.325079365080001	CONV2_listening	7.18627806345308
sub-11	04	101.721	1.1299773243	CONV2_listening	7.18627806345308
sub-11	04	111.8909773243	1.02	CONV2_listening	7.18627806345308
sub-11	04	121.7459886621	0.564988662200008	CONV2_listening	7.18627806345308
sub-11	04	127.481	1.3499773243	CONV2_listening	7.18627806345308
sub-11	04	147.6059886621	0.875011337899991	CONV2_listening	7.18627806345308
sub-11	04	90.225897959184	11.7196789267523	CONV2_speaking	7.18627806345308
sub-11	04	103.0109773243	3.1848979591	CONV2_speaking	7.18627806345308
sub-11	04	106.488310442925	2.0226668813751	CONV2_speaking	7.18627806345308
sub-11	04	108.821	2.7899773243	CONV2_speaking	7.18627806345308
sub-11	04	111.921	0.349977324299999	CONV2_speaking	7.18627806345308
sub-11	04	113.5259886621	0.944988662200004	CONV2_speaking	7.18627806345308
sub-11	04	114.909701001469	1.00127632283134	CONV2_speaking	7.18627806345308
sub-11	04	116.4960113379	1.2949659864	CONV2_speaking	7.18627806345308
sub-11	04	118.8360113379	2.32328245954781	CONV2_speaking	7.18627806345308
sub-11	04	122.01193560941	0.418903864947865	CONV2_speaking	7.18627806345308
sub-11	04	124.287602551424	2.35491902457184	CONV2_speaking	7.18627806345308
sub-11	04	130.615932591746	4.00789103220401	CONV2_speaking	7.18627806345308
sub-11	04	135.755996231917	1.15498109238263	CONV2_speaking	7.18627806345308
sub-11	04	137.4859886621	0.624988662199996	CONV2_speaking	7.18627806345308
sub-11	04	138.732484368207	2.4907797375279	CONV2_speaking	7.18627806345308
sub-11	04	142.649801591773	0.373616960629164	CONV2_speaking	7.18627806345308
sub-11	04	143.759330747581	0.826486003816086	CONV2_speaking	7.18627806345308
sub-11	04	170.18088662132	1.16009070293998	CONV1_listening	7.3385956676824
sub-11	04	181.3060113379	3.99981859409999	CONV1_listening	7.3385956676824
sub-11	04	185.6810226757	5.11995464859999	CONV1_listening	7.3385956676824
sub-11	04	191.9260113379	6.80534524480555	CONV1_listening	7.3385956676824
sub-11	04	201.5159886621	0.264988662200011	CONV1_listening	7.3385956676824
sub-11	04	208.9210226757	0.859954648599995	CONV1_listening	7.3385956676824
sub-11	04	210.6359886621	0.144988662200007	CONV1_listening	7.3385956676824
sub-11	04	212.9060113379	0.394965986399995	CONV1_listening	7.3385956676824
sub-11	04	214.5209773243	6.29999999999998	CONV1_listening	7.3385956676824
sub-11	04	223.9809773243	0.840000000000003	CONV1_listening	7.3385956676824
sub-11	04	167.06592063492	2.76503401360998	CONV1_speaking	7.3385956676824
sub-11	04	171.251	0.30997732425999	CONV1_speaking	7.3385956676824
sub-11	04	172.291	1.52997732426002	CONV1_speaking	7.3385956676824
sub-11	04	174.191	0.949977324260004	CONV1_speaking	7.3385956676824
sub-11	04	175.82601133787	2.67487528343	CONV1_speaking	7.3385956676824
sub-11	04	178.726638213164	1.53433911113601	CONV1_speaking	7.3385956676824
sub-11	04	198.9660113379	0.414965986400006	CONV1_speaking	7.3385956676824
sub-11	04	199.571	1.60997732430002	CONV1_speaking	7.3385956676824
sub-11	04	202.1410226757	3.23995464859999	CONV1_speaking	7.3385956676824
sub-11	04	205.691	2.47070404689964	CONV1_speaking	7.3385956676824
sub-11	04	209.011	0.189977324300003	CONV1_speaking	7.3385956676824
sub-11	04	210.0460113379	0.854965986400003	CONV1_speaking	7.3385956676824
sub-11	04	212.851	0.249977324300005	CONV1_speaking	7.3385956676824
sub-11	04	221.4860113379	2.21496598639999	CONV1_speaking	7.3385956676824
sub-11	04	224.471	0.513560090699997	CONV1_speaking	7.3385956676824
sub-11	04	252.33987528345	0.775102040850015	CONV2_listening	8.33636203303809
sub-11	04	254.005	1.2499773243	CONV2_listening	8.33636203303809
sub-11	04	265.0949773243	0.539999999999964	CONV2_listening	8.33636203303809
sub-11	04	273.9499886621	1.22498866220002	CONV2_listening	8.33636203303809
sub-11	04	279.3949773243	2.26000000000005	CONV2_listening	8.33636203303809
sub-11	04	292.2800113379	1.33496598639999	CONV2_listening	8.33636203303809
sub-11	04	299.1899886621	0.784988662200021	CONV2_listening	8.33636203303809
sub-11	04	243.62989795918	1.68507936508001	CONV2_speaking	8.33636203303809
sub-11	04	245.86998866213	1.54498866213001	CONV2_speaking	8.33636203303809
sub-11	04	247.888906904435	0.586070419824978	CONV2_speaking	8.33636203303809
sub-11	04	249.45497732426	0.800000000000011	CONV2_speaking	8.33636203303809
sub-11	04	251.005	1.30997732426002	CONV2_speaking	8.33636203303809
sub-11	04	253.8150226757	0.439954648599979	CONV2_speaking	8.33636203303809
sub-11	04	256.0200113379	0.414965986399977	CONV2_speaking	8.33636203303809
sub-11	04	256.925	3.22997732430002	CONV2_speaking	8.33636203303809
sub-11	04	260.805	1.44997732429999	CONV2_speaking	8.33636203303809
sub-11	04	268.915504196983	0.735912195178685	CONV2_speaking	8.33636203303809
sub-11	04	275.6800113379	0.234965986400027	CONV2_speaking	8.33636203303809
sub-11	04	276.1499886621	0.52498866220003	CONV2_speaking	8.33636203303809
sub-11	04	282.5800113379	0.314965986399955	CONV2_speaking	8.33636203303809
sub-11	04	283.2299886621	0.20498866219998	CONV2_speaking	8.33636203303809
sub-11	04	284.0499886621	1.92498866220001	CONV2_speaking	8.33636203303809
sub-11	04	286.2200113379	0.97496598639998	CONV2_speaking	8.33636203303809
sub-11	04	287.965	1.92997732429995	CONV2_speaking	8.33636203303809
sub-11	04	292.816337868481	3.13863945581926	CONV2_speaking	8.33636203303809
sub-11	04	296.582408055987	0.543442851824295	CONV2_speaking	8.33636203303809
sub-11	04	325.53390929705	0.160045351479994	CONV1_listening	7.099497265776
sub-11	04	342.2489659864	1.9950113379	CONV1_listening	7.099497265776
sub-11	04	344.9489659864	1.33501133790003	CONV1_listening	7.099497265776
sub-11	04	348.5989886621	2.40498866219997	CONV1_listening	7.099497265776
sub-11	04	351.5439773243	0.980000000000018	CONV1_listening	7.099497265776
sub-11	04	353.1090113379	8.33496598640005	CONV1_listening	7.099497265776
sub-11	04	364.3589886621	0.224988662200019	CONV1_listening	7.099497265776
sub-11	04	370.014	1.40997732429997	CONV1_listening	7.099497265776
sub-11	04	373.5189886621	4.57501133789998	CONV1_listening	7.099497265776
sub-11	04	319.973909297052	2.43006802720799	CONV1_speaking	7.099497265776
sub-11	04	322.85898866213	2.28498866212999	CONV1_speaking	7.099497265776
sub-11	04	325.634	1.88997732425997	CONV1_speaking	7.099497265776
sub-11	04	328.00901133787	0.654965986389982	CONV1_speaking	7.099497265776
sub-11	04	329.1040226757	0.179954648600017	CONV1_speaking	7.099497265776
sub-11	04	329.905375494389	0.998601829911308	CONV1_speaking	7.099497265776
sub-11	04	332.4189886621	2.54498866220001	CONV1_speaking	7.099497265776
sub-11	04	336.211962955854	0.992014368446462	CONV1_speaking	7.099497265776
sub-11	04	338.6239773243	0.800000000000011	CONV1_speaking	7.099497265776
sub-11	04	340.0789886621	1.62684183315588	CONV1_speaking	7.099497265776
sub-11	04	347.0789886621	1.45289104319363	CONV1_speaking	7.099497265776
sub-11	04	351.1789886621	0.324988662199985	CONV1_speaking	7.099497265776
sub-11	04	359.6490113379	0.694965986400007	CONV1_speaking	7.099497265776
sub-11	04	361.434	2.72622036102297	CONV1_speaking	7.099497265776
sub-11	04	364.8890113379	5.05496598640002	CONV1_speaking	7.099497265776
sub-11	04	371.2589886621	1.98498866219995	CONV1_speaking	7.099497265776
sub-11	04	409.7398866213	1.36009070299997	CONV2_listening	8.01321787261747
sub-11	04	422.13	1.0099773243	CONV2_listening	8.01321787261747
sub-11	04	423.6399773243	3.04000000000002	CONV2_listening	8.01321787261747
sub-11	04	442.3749886621	0.584988662199976	CONV2_listening	8.01321787261747
sub-11	04	449.05	0.329977324299989	CONV2_listening	8.01321787261747
sub-11	04	452.3399773243	2.29002267570002	CONV2_listening	8.01321787261747
sub-11	04	397.735519286928	3.30445803733244	CONV2_speaking	8.01321787261747
sub-11	04	401.30501133787	0.509614512470137	CONV2_speaking	8.01321787261747
sub-11	04	402.89997732426	0.799999999999955	CONV2_speaking	8.01321787261747
sub-11	04	405.7800226757	1.15330365440042	CONV2_speaking	8.01321787261747
sub-11	04	409.7399773243	0.45999999999998	CONV2_speaking	8.01321787261747
sub-11	04	413.51	2.0099773243	CONV2_speaking	8.01321787261747
sub-11	04	416.05	3.88997732429999	CONV2_speaking	8.01321787261747
sub-11	04	420.3400226757	0.957432290317286	CONV2_speaking	8.01321787261747
sub-11	04	427.5749886621	0.384988662199987	CONV2_speaking	8.01321787261747
sub-11	04	429.1949886621	2.66498866220002	CONV2_speaking	8.01321787261747
sub-11	04	432.39	3.36997732430001	CONV2_speaking	8.01321787261747
sub-11	04	436.2050113379	1.65496598640004	CONV2_speaking	8.01321787261747
sub-11	04	438.57	1.42997732430001	CONV2_speaking	8.01321787261747
sub-11	04	440.6250113379	0.614965986400023	CONV2_speaking	8.01321787261747
sub-11	04	442.5850113379	1.75496598640001	CONV2_speaking	8.01321787261747
sub-11	04	444.81	0.466010613355309	CONV2_speaking	8.01321787261747
sub-11	04	446.4250113379	1.3949659864	CONV2_speaking	8.01321787261747
