subject	run	onset	duration	trial_type	hnr
sub-17	02	19.70395464853	0.334875283439999	CONV1_listening	4.51951050102185
sub-17	02	23.5889886621	1.1899319728	CONV1_listening	4.51951050102185
sub-17	02	26.764	5.2648072562	CONV1_listening	4.51951050102185
sub-17	02	37.7339773243	0.259999999999998	CONV1_listening	4.51951050102185
sub-17	02	45.6689886621	1.98032938656105	CONV1_listening	4.51951050102185
sub-17	02	50.7389659864	2.29614012407598	CONV1_listening	4.51951050102185
sub-17	02	55.4190113379	5.3248979592	CONV1_listening	4.51951050102185
sub-17	02	61.664	5.8848526077	CONV1_listening	4.51951050102185
sub-17	02	68.4789659864	3.52503401360001	CONV1_listening	4.51951050102185
sub-17	02	15.92395464853	2.98997732426	CONV1_speaking	4.51951050102185
sub-17	02	20.63397732426	2.08	CONV1_speaking	4.51951050102185
sub-17	02	32.4289886621	0.384988662200001	CONV1_speaking	4.51951050102185
sub-17	02	33.8589659864	0.635011337899996	CONV1_speaking	4.51951050102185
sub-17	02	34.744	3.1099773243	CONV1_speaking	4.51951050102185
sub-17	02	39.904	0.749977324300005	CONV1_speaking	4.51951050102185
sub-17	02	41.3540226757	1.1999546486	CONV1_speaking	4.51951050102185
sub-17	02	53.2740226757	0.379954648600005	CONV1_speaking	4.51951050102185
sub-17	02	54.1089886621	0.484988662200003	CONV1_speaking	4.51951050102185
sub-17	02	59.9289886621	0.444988662200004	CONV1_speaking	4.51951050102185
sub-17	02	68.044	0.289977324300011	CONV1_speaking	4.51951050102185
sub-17	02	95.14890929705	0.345079365080011	CONV2_listening	6.57921354151277
sub-17	02	97.64396598639	0.850022675740007	CONV2_listening	6.57921354151277
sub-17	02	101.9539433107	1.38503401360001	CONV2_listening	6.57921354151277
sub-17	02	106.0789773243	1.54000000000001	CONV2_listening	6.57921354151277
sub-17	02	111.9639659864	0.335011337899999	CONV2_listening	6.57921354151277
sub-17	02	116.0939886621	1.0849886622	CONV2_listening	6.57921354151277
sub-17	02	125.5640113379	0.954965986399998	CONV2_listening	6.57921354151277
sub-17	02	126.929	0.389977324299991	CONV2_listening	6.57921354151277
sub-17	02	131.1589773243	1.08000000000001	CONV2_listening	6.57921354151277
sub-17	02	137.6989773243	1.19999999999999	CONV2_listening	6.57921354151277
sub-17	02	141.0639659864	0.535011337899988	CONV2_listening	6.57921354151277
sub-17	02	147.2389773243	1.33002267570001	CONV2_listening	6.57921354151277
sub-17	02	92.03389795918	0.760000000000005	CONV2_speaking	6.57921354151277
sub-17	02	93.309	0.589977324260005	CONV2_speaking	6.57921354151277
sub-17	02	94.41398866213	1.05492063491999	CONV2_speaking	6.57921354151277
sub-17	02	97.61398866213	0.68498866213001	CONV2_speaking	6.57921354151277
sub-17	02	98.85398866213	2.23995464856999	CONV2_speaking	6.57921354151277
sub-17	02	103.8339886621	0.799954648600007	CONV2_speaking	6.57921354151277
sub-17	02	105.6389773243	1.01986394550001	CONV2_speaking	6.57921354151277
sub-17	02	108.0739886621	0.364988662199991	CONV2_speaking	6.57921354151277
sub-17	02	109.149	1.9299773243	CONV2_speaking	6.57921354151277
sub-17	02	111.4539886621	1.3849886622	CONV2_speaking	6.57921354151277
sub-17	02	113.3139886621	0.544988662199998	CONV2_speaking	6.57921354151277
sub-17	02	117.8240113379	0.534965986399996	CONV2_speaking	6.57921354151277
sub-17	02	120.5589773243	2.4949206349	CONV2_speaking	6.57921354151277
sub-17	02	128.9990226757	0.919954648599969	CONV2_speaking	6.57921354151277
sub-17	02	132.409	0.86997732430001	CONV2_speaking	6.57921354151277
sub-17	02	134.649	0.649977324300011	CONV2_speaking	6.57921354151277
sub-17	02	139.489	0.749977324300005	CONV2_speaking	6.57921354151277
sub-17	02	142.129	1.0699773243	CONV2_speaking	6.57921354151277
sub-17	02	147.3539886621	0.244988662200001	CONV2_speaking	6.57921354151277
sub-17	02	175.94090929705	0.410068027249991	CONV1_listening	4.6611603629625
sub-17	02	180.2959659864	1.19501133790001	CONV1_listening	4.6611603629625
sub-17	02	181.961	2.0099773243	CONV1_listening	4.6611603629625
sub-17	02	185.2760113379	0.149977324199995	CONV1_listening	4.6611603629625
sub-17	02	189.3560113379	0.214965986399989	CONV1_listening	4.6611603629625
sub-17	02	192.821	4.08997732430001	CONV1_listening	4.6611603629625
sub-17	02	197.321	0.309977324300007	CONV1_listening	4.6611603629625
sub-17	02	199.3059886621	1.60498866220001	CONV1_listening	4.6611603629625
sub-17	02	201.461	1.98485260769999	CONV1_listening	4.6611603629625
sub-17	02	204.1459886621	0.804988662200003	CONV1_listening	4.6611603629625
sub-17	02	205.341	1.94997732429999	CONV1_listening	4.6611603629625
sub-17	02	212.901	2.70997732429998	CONV1_listening	4.6611603629625
sub-17	02	218.4259886621	0.320000000000022	CONV1_listening	4.6611603629625
sub-17	02	219.461	0.649977324299982	CONV1_listening	4.6611603629625
sub-17	02	168.656744877955	2.67423244630487	CONV1_speaking	4.6611603629625
sub-17	02	172.05601133787	3.29352241301797	CONV1_speaking	4.6611603629625
sub-17	02	176.9259886621	2.6648979592	CONV1_speaking	4.6611603629625
sub-17	02	183.781	1.26997732430002	CONV1_speaking	4.6611603629625
sub-17	02	187.5909773243	1.2085329457139	CONV1_speaking	4.6611603629625
sub-17	02	201.4360113379	0.239954648499975	CONV1_speaking	4.6611603629625
sub-17	02	207.501	0.809977324300007	CONV1_speaking	4.6611603629625
sub-17	02	210.2760113379	1.84489795920001	CONV1_speaking	4.6611603629625
sub-17	02	216.4109773243	1.73135055842647	CONV1_speaking	4.6611603629625
sub-17	02	220.5160113379	1.43496598640002	CONV1_speaking	4.6611603629625
sub-17	02	248.68592063492	0.375056689339999	CONV2_listening	5.93477183573841
sub-17	02	249.81594331066	1.74503401359999	CONV2_listening	5.93477183573841
sub-17	02	256.811	0.349977324300028	CONV2_listening	5.93477183573841
sub-17	02	261.0859659864	1.19501133789998	CONV2_listening	5.93477183573841
sub-17	02	265.7659659864	1.31501133790005	CONV2_listening	5.93477183573841
sub-17	02	272.0759886621	0.404988662199969	CONV2_listening	5.93477183573841
sub-17	02	275.551	0.989977324300014	CONV2_listening	5.93477183573841
sub-17	02	280.5259659864	0.889931972799957	CONV2_listening	5.93477183573841
sub-17	02	289.8159886621	1.76498866220004	CONV2_listening	5.93477183573841
sub-17	02	244.68592063492	2.49505668934	CONV2_speaking	5.93477183573841
sub-17	02	252.871	0.344943310699989	CONV2_speaking	5.93477183573841
sub-17	02	253.8159886621	1.4649886622	CONV2_speaking	5.93477183573841
sub-17	02	258.096339919247	0.924637405053033	CONV2_speaking	5.93477183573841
sub-17	02	262.791	0.729977324300023	CONV2_speaking	5.93477183573841
sub-17	02	264.7159886621	0.744988662200001	CONV2_speaking	5.93477183573841
sub-17	02	267.9159886621	0.604988662200014	CONV2_speaking	5.93477183573841
sub-17	02	269.5060113379	1.15496598639999	CONV2_speaking	5.93477183573841
sub-17	02	270.851	0.609977324300019	CONV2_speaking	5.93477183573841
sub-17	02	277.091	0.359909297099989	CONV2_speaking	5.93477183573841
sub-17	02	282.2959886621	4.87202120083651	CONV2_speaking	5.93477183573841
sub-17	02	288.362451964342	0.873445994858059	CONV2_speaking	5.93477183573841
sub-17	02	292.0009773243	0.400000000000034	CONV2_speaking	5.93477183573841
sub-17	02	293.1460113379	0.47496598639998	CONV2_speaking	5.93477183573841
sub-17	02	297.3009773243	1.73990753196978	CONV2_speaking	5.93477183573841
sub-17	02	324.68490929705	1.53006802720995	CONV1_listening	3.88116737358729
sub-17	02	328.56001133787	0.234965986390023	CONV1_listening	3.88116737358729
sub-17	02	328.98001133787	0.37496598642997	CONV1_listening	3.88116737358729
sub-17	02	330.2949773243	0.680000000000007	CONV1_listening	3.88116737358729
sub-17	02	333.865	0.229977324299966	CONV1_listening	3.88116737358729
sub-17	02	336.925	0.404807256200002	CONV1_listening	3.88116737358729
sub-17	02	339.405	2.22997732430002	CONV1_listening	3.88116737358729
sub-17	02	345.825	2.34997732430003	CONV1_listening	3.88116737358729
sub-17	02	353.8399659864	0.735011337900005	CONV1_listening	3.88116737358729
sub-17	02	355.1899886621	4.16498866219996	CONV1_listening	3.88116737358729
sub-17	02	360.525	0.779818594099993	CONV1_listening	3.88116737358729
sub-17	02	361.7699886621	3.14498866219998	CONV1_listening	3.88116737358729
sub-17	02	365.465	2.32997732429999	CONV1_listening	3.88116737358729
sub-17	02	326.80994331066	1.47002267572998	CONV1_speaking	3.88116737358729
sub-17	02	331.165	2.6899773243	CONV1_speaking	3.88116737358729
sub-17	02	336.893601829876	0.881375494423708	CONV1_speaking	3.88116737358729
sub-17	02	343.705	1.64407580616256	CONV1_speaking	3.88116737358729
sub-17	02	348.785	0.42187821044979	CONV1_speaking	3.88116737358729
sub-17	02	349.20687821045	12.5680991138502	CONV1_speaking	3.88116737358729
sub-17	02	368.265	3.36489795919999	CONV1_speaking	3.88116737358729
sub-17	02	372.1499886621	1.43830723122028	CONV1_speaking	3.88116737358729
sub-17	02	375.614884859257	2.60367523144328	CONV1_speaking	3.88116737358729
sub-17	02	404.93687528345	0.395102040810002	CONV2_listening	5.30550384077054
sub-17	02	413.9319773243	0.379999999999995	CONV2_listening	5.30550384077054
sub-17	02	415.9469886621	1.56498866219999	CONV2_listening	5.30550384077054
sub-17	02	422.5869886621	1.36498866220001	CONV2_listening	5.30550384077054
sub-17	02	432.582	0.409977324299973	CONV2_listening	5.30550384077054
sub-17	02	433.1920226757	0.739954648599962	CONV2_listening	5.30550384077054
sub-17	02	434.5869886621	1.08498866219998	CONV2_listening	5.30550384077054
sub-17	02	444.5269886621	1.10498866220001	CONV2_listening	5.30550384077054
sub-17	02	449.1119773243	0.920000000000016	CONV2_listening	5.30550384077054
sub-17	02	397.65188662132	1.46009070294002	CONV2_speaking	5.30550384077054
sub-17	02	401.01701133787	0.554965986390016	CONV2_speaking	5.30550384077054
sub-17	02	403.79197732426	1.92489795919005	CONV2_speaking	5.30550384077054
sub-17	02	407.7919773243	1.25496598640001	CONV2_speaking	5.30550384077054
sub-17	02	413.091062081237	0.532121125744595	CONV2_speaking	5.30550384077054
sub-17	02	418.265090899647	0.346886424652951	CONV2_speaking	5.30550384077054
sub-17	02	419.022	1.38997732429999	CONV2_speaking	5.30550384077054
sub-17	02	425.981682874984	0.424564727987729	CONV2_speaking	5.30550384077054
sub-17	02	428.782	1.75496598640001	CONV2_speaking	5.30550384077054
sub-17	02	437.599886485935	1.37209083836461	CONV2_speaking	5.30550384077054
sub-17	02	446.6769659864	0.255011337899987	CONV2_speaking	5.30550384077054
sub-17	02	447.802	0.389977324299991	CONV2_speaking	5.30550384077054
sub-17	02	450.8769659864	1.41501133790001	CONV2_speaking	5.30550384077054
sub-17	02	454.0119773243	0.783582766400002	CONV2_speaking	5.30550384077054
