set,set,cluster,cluster,cluster,cluster,peak,peak,peak,peak,peak,,,
p,c,p(FWE-corr),p(FDR-corr),equivk,p(unc),p(FWE-corr),p(FDR-corr),T,equivZ,p(unc),x,y,z {mm}
0.466,8,0.000,0.000,18482,0.000,0.000,0.000, 21.61,  Inf,0.000,-46, -12, 42
,,,,,,0.000,0.000, 21.60,  Inf,0.000, 54,  -8, 32
,,,,,,0.000,0.000, 17.65, 7.54,0.000,-14, -65,-18
,,0.000,0.000,591,0.000,0.000,0.000, 14.26, 6.99,0.000,-22, -32, 62
,,,,,,0.002,0.001,  8.73, 5.62,0.000,-16, -42, 52
,,0.000,0.000,941,0.000,0.013,0.002,  7.87, 5.31,0.000,-39,  48,  9
,,,,,,0.018,0.003,  7.71, 5.26,0.000,-34,  50, 24
,,,,,,0.081,0.008,  6.98, 4.97,0.000,-46,  35, 24
,,0.318,0.217,41,0.008,0.886,0.077,  5.37, 4.21,0.000, 36, -45, -1
,,,,,,1.000,0.568,  3.96, 3.38,0.000, 38, -35, -6
,,0.018,0.008,85,0.000,0.924,0.089,  5.27, 4.16,0.000, 34,  45, 29
,,,,,,0.973,0.119,  5.08, 4.06,0.000, 31,  40, 19
,,0.001,0.002,135,0.000,0.965,0.112,  5.12, 4.08,0.000,-49, -45, 39
,,,,,,1.000,0.329,  4.35, 3.63,0.000,-59, -32, 26
,,,,,,1.000,0.385,  4.24, 3.57,0.000,-52, -40, 32
,,0.933,0.403,19,0.054,0.981,0.126,  5.03, 4.03,0.000,-29, -45, 36
,,0.994,0.403,13,0.104,1.000,0.497,  4.06, 3.45,0.000, 18,  48, -1
,,,,,,1.000,0.608,  3.90, 3.35,0.000, 18,  40, -6
