{
  "ttest_network(\"tom_ppn\")": {
    "method": "Paired t-test",
    "var_equal": true,
    "name": "as.numeric(corz) by interaction",
    "statistics": {
      "estimate": {
        "name": "mean difference",
        "value": 0.00907
      },
      "SE": 0.006863,
      "statistic": {
        "name": "t",
        "value": 1.321458
      },
      "df": 21,
      "p": 0.200566,
      "CI": {
        "CI_level": 0.95,
        "CI_lower": -0.005203,
        "CI_upper": 0.023343
      }
    },
    "alternative": {
      "direction": "two.sided",
      "null_value": 0
    },
    "package": {
      "name": "stats",
      "version": "4.1.1"
    },
    "notes": "tom_ppn"
  },
  "ttest_network(\"tom_object\")": {
    "method": "Paired t-test",
    "var_equal": true,
    "name": "as.numeric(corz) by interaction",
    "statistics": {
      "estimate": {
        "name": "mean difference",
        "value": 0.007666
      },
      "SE": 0.006724,
      "statistic": {
        "name": "t",
        "value": 1.140096
      },
      "df": 21,
      "p": 0.267083,
      "CI": {
        "CI_level": 0.95,
        "CI_lower": -0.006317,
        "CI_upper": 0.02165
      }
    },
    "alternative": {
      "direction": "two.sided",
      "null_value": 0
    },
    "package": {
      "name": "stats",
      "version": "4.1.1"
    },
    "notes": "tom_object"
  },
  "ttest_network(\"tom_language\")": {
    "method": "Paired t-test",
    "var_equal": true,
    "name": "as.numeric(corz) by interaction",
    "statistics": {
      "estimate": {
        "name": "mean difference",
        "value": 0.01218
      },
      "SE": 0.004591,
      "statistic": {
        "name": "t",
        "value": 2.653038
      },
      "df": 21,
      "p": 0.014877,
      "CI": {
        "CI_level": 0.95,
        "CI_lower": 0.002633,
        "CI_upper": 0.021727
      }
    },
    "alternative": {
      "direction": "two.sided",
      "null_value": 0
    },
    "package": {
      "name": "stats",
      "version": "4.1.1"
    },
    "notes": "tom_language"
  },
  "ttest_network(\"tom_demand\")": {
    "method": "Paired t-test",
    "var_equal": true,
    "name": "as.numeric(corz) by interaction",
    "statistics": {
      "estimate": {
        "name": "mean difference",
        "value": 0.004591
      },
      "SE": 0.004438,
      "statistic": {
        "name": "t",
        "value": 1.034496
      },
      "df": 21,
      "p": 0.312671,
      "CI": {
        "CI_level": 0.95,
        "CI_lower": -0.004638,
        "CI_upper": 0.01382
      }
    },
    "alternative": {
      "direction": "two.sided",
      "null_value": 0
    },
    "package": {
      "name": "stats",
      "version": "4.1.1"
    },
    "notes": "tom_demand"
  },
  "ttest_network(\"ppn_object\")": {
    "method": "Paired t-test",
    "var_equal": true,
    "name": "as.numeric(corz) by interaction",
    "statistics": {
      "estimate": {
        "name": "mean difference",
        "value": 0.014658
      },
      "SE": 0.008496,
      "statistic": {
        "name": "t",
        "value": 1.72535
      },
      "df": 21,
      "p": 0.099152,
      "CI": {
        "CI_level": 0.95,
        "CI_lower": -0.00301,
        "CI_upper": 0.032326
      }
    },
    "alternative": {
      "direction": "two.sided",
      "null_value": 0
    },
    "package": {
      "name": "stats",
      "version": "4.1.1"
    },
    "notes": "ppn_object"
  },
  "ttest_network(\"ppn_language\")": {
    "method": "Paired t-test",
    "var_equal": true,
    "name": "as.numeric(corz) by interaction",
    "statistics": {
      "estimate": {
        "name": "mean difference",
        "value": 0.004519
      },
      "SE": 0.004115,
      "statistic": {
        "name": "t",
        "value": 1.098039
      },
      "df": 21,
      "p": 0.284618,
      "CI": {
        "CI_level": 0.95,
        "CI_lower": -0.004039,
        "CI_upper": 0.013077
      }
    },
    "alternative": {
      "direction": "two.sided",
      "null_value": 0
    },
    "package": {
      "name": "stats",
      "version": "4.1.1"
    },
    "notes": "ppn_language"
  },
  "ttest_network(\"ppn_demand\")": {
    "method": "Paired t-test",
    "var_equal": true,
    "name": "as.numeric(corz) by interaction",
    "statistics": {
      "estimate": {
        "name": "mean difference",
        "value": 0.011971
      },
      "SE": 0.004188,
      "statistic": {
        "name": "t",
        "value": 2.858212
      },
      "df": 21,
      "p": 0.009413,
      "CI": {
        "CI_level": 0.95,
        "CI_lower": 0.003261,
        "CI_upper": 0.02068
      }
    },
    "alternative": {
      "direction": "two.sided",
      "null_value": 0
    },
    "package": {
      "name": "stats",
      "version": "4.1.1"
    },
    "notes": "ppn_demand"
  },
  "ttest_network(\"object_language\")": {
    "method": "Paired t-test",
    "var_equal": true,
    "name": "as.numeric(corz) by interaction",
    "statistics": {
      "estimate": {
        "name": "mean difference",
        "value": 0.001274
      },
      "SE": 0.004037,
      "statistic": {
        "name": "t",
        "value": 0.315701
      },
      "df": 21,
      "p": 0.755345,
      "CI": {
        "CI_level": 0.95,
        "CI_lower": -0.007121,
        "CI_upper": 0.00967
      }
    },
    "alternative": {
      "direction": "two.sided",
      "null_value": 0
    },
    "package": {
      "name": "stats",
      "version": "4.1.1"
    },
    "notes": "object_language"
  },
  "ttest_network(\"object_demand\")": {
    "method": "Paired t-test",
    "var_equal": true,
    "name": "as.numeric(corz) by interaction",
    "statistics": {
      "estimate": {
        "name": "mean difference",
        "value": 0.013571
      },
      "SE": 0.004292,
      "statistic": {
        "name": "t",
        "value": 3.161695
      },
      "df": 21,
      "p": 0.004703,
      "CI": {
        "CI_level": 0.95,
        "CI_lower": 0.004645,
        "CI_upper": 0.022498
      }
    },
    "alternative": {
      "direction": "two.sided",
      "null_value": 0
    },
    "package": {
      "name": "stats",
      "version": "4.1.1"
    },
    "notes": "object_demand"
  },
  "ttest_network(\"language_demand\")": {
    "method": "Paired t-test",
    "var_equal": true,
    "name": "as.numeric(corz) by interaction",
    "statistics": {
      "estimate": {
        "name": "mean difference",
        "value": 0.011165
      },
      "SE": 0.005113,
      "statistic": {
        "name": "t",
        "value": 2.183851
      },
      "df": 21,
      "p": 0.04046,
      "CI": {
        "CI_level": 0.95,
        "CI_lower": 0.000533,
        "CI_upper": 0.021798
      }
    },
    "alternative": {
      "direction": "two.sided",
      "null_value": 0
    },
    "package": {
      "name": "stats",
      "version": "4.1.1"
    },
    "notes": "language_demand"
  }
}
